{
    "2009": {
        "[LT02-01] - PROFESSIONALIZZANTE": [
            {
                "name": "ANALISI MATEMATICA I",
                "cfu": 6
            },
            {
                "name": "CHIMICA (EDILE) - TECNOLOGIA DEI MATERIALI E CHIMICA APPLICATA",
                "cfu": 6
            },
            {
                "name": "DISEGNO DELL'ARCHITETTURA I + LABORATORIO",
                "cfu": 12
            },
            {
                "name": "GEOMETRIA",
                "cfu": 6
            },
            {
                "name": "ANALISI MATEMATICA II",
                "cfu": 6
            },
            {
                "name": "FISICA GENERALE",
                "cfu": 6
            },
            {
                "name": "LINGUA STRANIERA (INGLESE)",
                "cfu": 3
            },
            {
                "name": "MECCANICA RAZIONALE - STATICA",
                "cfu": 6
            },
            {
                "name": "STORIA DELL'ARCHITETTURA ",
                "cfu": 9
            },
            {
                "name": "ARCHITETTURA TECNICA I + LABORATORIO",
                "cfu": 12
            },
            {
                "name": "FISICA TECNICA AMBIENTALE - PROGETTI DI SERVIZI TECNOLOGICI",
                "cfu": 9
            },
            {
                "name": "SCIENZA DELLE COSTRUZIONI",
                "cfu": 9
            },
            {
                "name": "GEOTECNICA",
                "cfu": 6
            },
            {
                "name": "TECNICA URBANISTICA I + LABORATORIO",
                "cfu": 12
            },
            {
                "name": "DIRITTO URBANISTICO E LEGISLAZIONE DELLE OO.PP.",
                "cfu": 6
            },
            {
                "name": "ESTIMO",
                "cfu": 6
            },
            {
                "name": "TECNICA DELLE COSTRUZIONI + LABORATORIO",
                "cfu": 12
            },
            {
                "name": "TOPOGRAFIA E TECNICHE DI RILEVAMENTO",
                "cfu": 6
            },
            {
                "name": "LABORATORIO DI TESI",
                "cfu": 6
            },
            {
                "name": "ORGANIZZAZIONE DEL CANTIERE",
                "cfu": 9
            },
            {
                "name": "RECUPERO E CONSERVAZIONE DEGLI EDIFICI ",
                "cfu": 9
            },
            {
                "name": "TIROCINIO FINALE + STAGE",
                "cfu": 6
            },
            {
                "name": "ESAME A SCELTA",
                "cfu": 6
            },
            {
                "name": "ESAME A SCELTA",
                "cfu": 6
            }
        ],
        "[LT02-02] - PROSECUZIONE STUDI": [
            {
                "name": "ANALISI MATEMATICA I",
                "cfu": 6
            },
            {
                "name": "CHIMICA (EDILE) - TECNOLOGIA DEI MATERIALI E CHIMICA APPLICATA",
                "cfu": 6
            },
            {
                "name": "DISEGNO DELL'ARCHITETTURA I + LABORATORIO",
                "cfu": 12
            },
            {
                "name": "GEOMETRIA",
                "cfu": 6
            },
            {
                "name": "ANALISI MATEMATICA II",
                "cfu": 6
            },
            {
                "name": "FISICA GENERALE",
                "cfu": 6
            },
            {
                "name": "LINGUA STRANIERA (INGLESE)",
                "cfu": 3
            },
            {
                "name": "MECCANICA RAZIONALE - STATICA",
                "cfu": 6
            },
            {
                "name": "STORIA DELL'ARCHITETTURA ",
                "cfu": 9
            },
            {
                "name": "ARCHITETTURA TECNICA I + LABORATORIO",
                "cfu": 12
            },
            {
                "name": "FISICA TECNICA AMBIENTALE - PROGETTI DI SERVIZI TECNOLOGICI",
                "cfu": 9
            },
            {
                "name": "SCIENZA DELLE COSTRUZIONI",
                "cfu": 9
            },
            {
                "name": "GEOTECNICA",
                "cfu": 6
            },
            {
                "name": "TECNICA URBANISTICA I + LABORATORIO",
                "cfu": 12
            },
            {
                "name": "COSTRUZIONI IDRAULICHE - TECNICA DEI LAVORI STRADALI",
                "cfu": 9
            },
            {
                "name": "DISEGNO DELL'ARCHITETTURA II - INFORMATICA GRAFICA",
                "cfu": 9
            },
            {
                "name": "TECNICA DELLE COSTRUZIONI + LABORATORIO",
                "cfu": 12
            },
            {
                "name": "ARCHITETTURA TECNICA II",
                "cfu": 9
            },
            {
                "name": "LABORATORIO DI TESI",
                "cfu": 6
            },
            {
                "name": "ORGANIZZAZIONE DEL CANTIERE",
                "cfu": 9
            },
            {
                "name": "TIROCINIO FINALE + STAGE",
                "cfu": 6
            },
            {
                "name": "ESAME A SCELTA",
                "cfu": 6
            },
            {
                "name": "ESAME A SCELTA",
                "cfu": 6
            }
        ]
    },
    "2010": {
        "[PDS0-2010] - Offerta didattica": [
            {
                "name": "ANALISI MATEMATICA I",
                "cfu": 6
            },
            {
                "name": "CHIMICA (EDILE) - TECNOLOGIA DEI MATERIALI E CHIMICA APPLICATA",
                "cfu": 6
            },
            {
                "name": "DISEGNO DELL'ARCHITETTURA I + LABORATORIO",
                "cfu": 12
            },
            {
                "name": "GEOMETRIA",
                "cfu": 6
            },
            {
                "name": "ANALISI MATEMATICA II",
                "cfu": 6
            },
            {
                "name": "FISICA GENERALE",
                "cfu": 6
            },
            {
                "name": "LINGUA STRANIERA (INGLESE)",
                "cfu": 3
            },
            {
                "name": "MECCANICA RAZIONALE - STATICA",
                "cfu": 6
            },
            {
                "name": "STORIA DELL'ARCHITETTURA ",
                "cfu": 9
            },
            {
                "name": "ARCHITETTURA TECNICA I + LABORATORIO",
                "cfu": 12
            },
            {
                "name": "DISEGNO DELL'ARCHITETTURA II - INFORMATICA GRAFICA",
                "cfu": 9
            },
            {
                "name": "SCIENZA DELLE COSTRUZIONI",
                "cfu": 9
            },
            {
                "name": "ESTIMO",
                "cfu": 6
            },
            {
                "name": "GEOTECNICA",
                "cfu": 6
            },
            {
                "name": "TECNICA URBANISTICA I + LABORATORIO",
                "cfu": 12
            },
            {
                "name": "TOPOGRAFIA E TECNICHE DI RILEVAMENTO",
                "cfu": 6
            },
            {
                "name": "AMBIENTE E SISTEMI EDILIZI",
                "cfu": 6
            },
            {
                "name": "FISICA TECNICA AMBIENTALE - PROGETTI DI SERVIZI TECNOLOGICI",
                "cfu": 9
            },
            {
                "name": "TECNICA DELLE COSTRUZIONI + LABORATORIO",
                "cfu": 12
            },
            {
                "name": "LABORATORIO DI TESI",
                "cfu": 6
            },
            {
                "name": "ORGANIZZAZIONE DEL CANTIERE",
                "cfu": 9
            },
            {
                "name": "TIROCINIO FINALE + STAGE",
                "cfu": 6
            },
            {
                "name": "ESAME A SCELTA",
                "cfu": 6
            },
            {
                "name": "ESAME A SCELTA",
                "cfu": 6
            }
        ]
    },
    "2011": {
        "[PDS0-2010] - Offerta didattica": [
            {
                "name": "ANALISI MATEMATICA I",
                "cfu": 6
            },
            {
                "name": "CHIMICA (EDILE) - TECNOLOGIA DEI MATERIALI E CHIMICA APPLICATA",
                "cfu": 6
            },
            {
                "name": "DISEGNO DELL'ARCHITETTURA I + LABORATORIO",
                "cfu": 12
            },
            {
                "name": "GEOMETRIA",
                "cfu": 6
            },
            {
                "name": "ANALISI MATEMATICA II",
                "cfu": 6
            },
            {
                "name": "FISICA GENERALE",
                "cfu": 6
            },
            {
                "name": "LINGUA STRANIERA (INGLESE)",
                "cfu": 3
            },
            {
                "name": "MECCANICA RAZIONALE - STATICA",
                "cfu": 6
            },
            {
                "name": "STORIA DELL'ARCHITETTURA ",
                "cfu": 9
            },
            {
                "name": "ARCHITETTURA TECNICA I + LABORATORIO",
                "cfu": 12
            },
            {
                "name": "DISEGNO DELL'ARCHITETTURA II - INFORMATICA GRAFICA",
                "cfu": 9
            },
            {
                "name": "SCIENZA DELLE COSTRUZIONI",
                "cfu": 9
            },
            {
                "name": "ESTIMO",
                "cfu": 6
            },
            {
                "name": "GEOTECNICA",
                "cfu": 6
            },
            {
                "name": "TECNICA URBANISTICA I + LABORATORIO",
                "cfu": 12
            },
            {
                "name": "TOPOGRAFIA E TECNICHE DI RILEVAMENTO",
                "cfu": 6
            },
            {
                "name": "AMBIENTE E SISTEMI EDILIZI",
                "cfu": 6
            },
            {
                "name": "TECNICA DELLE COSTRUZIONI + LABORATORIO",
                "cfu": 12
            },
            {
                "name": "FISICA TECNICA AMBIENTALE - PROGETTI DI SERVIZI TECNOLOGICI",
                "cfu": 9
            },
            {
                "name": "LABORATORIO DI TESI",
                "cfu": 6
            },
            {
                "name": "ORGANIZZAZIONE DEL CANTIERE",
                "cfu": 9
            },
            {
                "name": "TIROCINIO FINALE + STAGE",
                "cfu": 6
            },
            {
                "name": "ESAME A SCELTA",
                "cfu": 6
            },
            {
                "name": "ESAME A SCELTA",
                "cfu": 6
            }
        ]
    },
    "2012": {
        "[PDS0-2010] - Offerta didattica": [
            {
                "name": "ANALISI MATEMATICA I",
                "cfu": 6
            },
            {
                "name": "CHIMICA (EDILE) - TECNOLOGIA DEI MATERIALI E CHIMICA APPLICATA",
                "cfu": 6
            },
            {
                "name": "DISEGNO DELL'ARCHITETTURA I + LABORATORIO",
                "cfu": 12
            },
            {
                "name": "GEOMETRIA",
                "cfu": 6
            },
            {
                "name": "ANALISI MATEMATICA II",
                "cfu": 6
            },
            {
                "name": "FISICA GENERALE",
                "cfu": 6
            },
            {
                "name": "LINGUA STRANIERA (INGLESE)",
                "cfu": 3
            },
            {
                "name": "MECCANICA RAZIONALE - STATICA",
                "cfu": 6
            },
            {
                "name": "STORIA DELL'ARCHITETTURA ",
                "cfu": 9
            },
            {
                "name": "ARCHITETTURA TECNICA I + LABORATORIO",
                "cfu": 12
            },
            {
                "name": "DISEGNO DELL'ARCHITETTURA II - INFORMATICA GRAFICA",
                "cfu": 9
            },
            {
                "name": "SCIENZA DELLE COSTRUZIONI",
                "cfu": 9
            },
            {
                "name": "ESTIMO",
                "cfu": 6
            },
            {
                "name": "GEOTECNICA",
                "cfu": 6
            },
            {
                "name": "TECNICA URBANISTICA I + LABORATORIO",
                "cfu": 12
            },
            {
                "name": "TOPOGRAFIA E TECNICHE DI RILEVAMENTO",
                "cfu": 6
            },
            {
                "name": "AMBIENTE E SISTEMI EDILIZI",
                "cfu": 6
            },
            {
                "name": "TECNICA DELLE COSTRUZIONI + LABORATORIO",
                "cfu": 12
            },
            {
                "name": "FISICA TECNICA AMBIENTALE - PROGETTI DI SERVIZI TECNOLOGICI",
                "cfu": 9
            },
            {
                "name": "LABORATORIO DI TESI",
                "cfu": 6
            },
            {
                "name": "ORGANIZZAZIONE DEL CANTIERE",
                "cfu": 9
            },
            {
                "name": "TIROCINIO FINALE + STAGE",
                "cfu": 6
            },
            {
                "name": "ESAME A SCELTA",
                "cfu": 6
            },
            {
                "name": "ESAME A SCELTA",
                "cfu": 6
            }
        ]
    },
    "2013": {
        "[PDS0-2013] - Offerta didattica": [
            {
                "name": "ANALISI MATEMATICA I",
                "cfu": 12
            },
            {
                "name": "Chimica",
                "cfu": 6
            },
            {
                "name": "GEOMETRIA",
                "cfu": 6
            },
            {
                "name": "GEOMETRIA DESCRITTIVA",
                "cfu": 6
            },
            {
                "name": "Disegno dell'architettura",
                "cfu": 12
            },
            {
                "name": "FISICA GENERALE",
                "cfu": 6
            },
            {
                "name": "MECCANICA RAZIONALE",
                "cfu": 6
            },
            {
                "name": "TECNOLOGIA DEI MATERIALI E CHIMICA APPLICATA",
                "cfu": 6
            },
            {
                "name": "SCIENZA DELLE COSTRUZIONI",
                "cfu": 12
            },
            {
                "name": "ESTIMO",
                "cfu": 6
            },
            {
                "name": "GEOTECNICA",
                "cfu": 6
            },
            {
                "name": "LINGUA INGLESE B1",
                "cfu": 0
            },
            {
                "name": "ARCHITETTURA TECNICA",
                "cfu": 12
            },
            {
                "name": "FISICA TECNICA AMBIENTALE ",
                "cfu": 6
            },
            {
                "name": "IDRAULICA TECNICA",
                "cfu": 6
            },
            {
                "name": "PRODUZIONE EDILIZIA E CANTIERE",
                "cfu": 12
            },
            {
                "name": "TECNICA DELLE COSTRUZIONI",
                "cfu": 12
            },
            {
                "name": "TECNICA URBANISTICA",
                "cfu": 12
            },
            {
                "name": "TIPOLOGIE E TECNOLOGIE EDILIZIE",
                "cfu": 6
            },
            {
                "name": "TIROCINIO + PROVA FINALE",
                "cfu": 6
            },
            {
                "name": "TOPOGRAFIA E TECN. DI RILEVAMENTO + INFRASTRUTTURE VIARIE",
                "cfu": 12
            },
            {
                "name": "ESAME A SCELTA",
                "cfu": 6
            },
            {
                "name": "ESAME A SCELTA",
                "cfu": 6
            }
        ]
    },
    "2014": {
        "[PDS0-2013] - Offerta didattica": [
            {
                "name": "ANALISI MATEMATICA I",
                "cfu": 12
            },
            {
                "name": "Chimica",
                "cfu": 6
            },
            {
                "name": "GEOMETRIA",
                "cfu": 6
            },
            {
                "name": "GEOMETRIA DESCRITTIVA",
                "cfu": 6
            },
            {
                "name": "Disegno dell'architettura",
                "cfu": 12
            },
            {
                "name": "FISICA GENERALE",
                "cfu": 6
            },
            {
                "name": "MECCANICA RAZIONALE",
                "cfu": 6
            },
            {
                "name": "TECNOLOGIA DEI MATERIALI E CHIMICA APPLICATA",
                "cfu": 6
            },
            {
                "name": "ARCHITETTURA TECNICA",
                "cfu": 12
            },
            {
                "name": "IDRAULICA TECNICA",
                "cfu": 6
            },
            {
                "name": "TOPOGRAFIA E TECN. DI RILEVAMENTO + INFRASTRUTTURE VIARIE",
                "cfu": 12
            },
            {
                "name": "FISICA TECNICA AMBIENTALE ",
                "cfu": 6
            },
            {
                "name": "SCIENZA DELLE COSTRUZIONI",
                "cfu": 12
            },
            {
                "name": "TECNICA URBANISTICA",
                "cfu": 12
            },
            {
                "name": "ESTIMO",
                "cfu": 6
            },
            {
                "name": "GEOTECNICA",
                "cfu": 6
            },
            {
                "name": "LINGUA INGLESE B1",
                "cfu": 0
            },
            {
                "name": "PRODUZIONE EDILIZIA E CANTIERE",
                "cfu": 12
            },
            {
                "name": "TECNICA DELLE COSTRUZIONI",
                "cfu": 12
            },
            {
                "name": "TIPOLOGIE E TECNOLOGIE EDILIZIE",
                "cfu": 6
            },
            {
                "name": "TIROCINIO + PROVA FINALE",
                "cfu": 6
            },
            {
                "name": "ESAME A SCELTA",
                "cfu": 6
            },
            {
                "name": "ESAME A SCELTA",
                "cfu": 6
            }
        ]
    },
    "2015": {
        "[PDS0-2013] - Offerta didattica": [
            {
                "name": "ANALISI MATEMATICA I",
                "cfu": 12
            },
            {
                "name": "Chimica",
                "cfu": 6
            },
            {
                "name": "GEOMETRIA",
                "cfu": 6
            },
            {
                "name": "GEOMETRIA DESCRITTIVA",
                "cfu": 6
            },
            {
                "name": "Disegno dell'architettura",
                "cfu": 12
            },
            {
                "name": "FISICA GENERALE",
                "cfu": 6
            },
            {
                "name": "MECCANICA RAZIONALE",
                "cfu": 6
            },
            {
                "name": "TECNOLOGIA DEI MATERIALI E CHIMICA APPLICATA",
                "cfu": 6
            },
            {
                "name": "ARCHITETTURA TECNICA",
                "cfu": 12
            },
            {
                "name": "IDRAULICA TECNICA",
                "cfu": 6
            },
            {
                "name": "TOPOGRAFIA E TECN. DI RILEVAMENTO + INFRASTRUTTURE VIARIE",
                "cfu": 12
            },
            {
                "name": "FISICA TECNICA AMBIENTALE ",
                "cfu": 6
            },
            {
                "name": "SCIENZA DELLE COSTRUZIONI",
                "cfu": 12
            },
            {
                "name": "TECNICA URBANISTICA",
                "cfu": 12
            },
            {
                "name": "ESTIMO",
                "cfu": 6
            },
            {
                "name": "GEOTECNICA",
                "cfu": 6
            },
            {
                "name": "TECNICA DELLE COSTRUZIONI",
                "cfu": 12
            },
            {
                "name": "PRODUZIONE EDILIZIA E CANTIERE",
                "cfu": 12
            },
            {
                "name": "TIPOLOGIE E TECNOLOGIE EDILIZIE",
                "cfu": 6
            },
            {
                "name": "PROVA FINALE",
                "cfu": 3
            },
            {
                "name": "TIROCINIO",
                "cfu": 3
            },
            {
                "name": "LINGUA INGLESE B1",
                "cfu": 0
            },
            {
                "name": "ESAME A SCELTA",
                "cfu": 6
            },
            {
                "name": "ESAME A SCELTA",
                "cfu": 6
            }
        ]
    },
    "2016": {
        "[PDS0-2013] - Offerta didattica": [
            {
                "name": "ANALISI MATEMATICA",
                "cfu": 12
            },
            {
                "name": "FISICA 1",
                "cfu": 6
            },
            {
                "name": "GEOMETRIA DESCRITTIVA",
                "cfu": 6
            },
            {
                "name": "GEOMETRIA E ALGEBRA",
                "cfu": 6
            },
            {
                "name": "Chimica",
                "cfu": 6
            },
            {
                "name": "Disegno dell'architettura",
                "cfu": 12
            },
            {
                "name": "FISICA 2",
                "cfu": 6
            },
            {
                "name": "TECNOLOGIA DEI MATERIALI E CHIMICA APPLICATA",
                "cfu": 6
            },
            {
                "name": "ARCHITETTURA TECNICA",
                "cfu": 12
            },
            {
                "name": "IDRAULICA TECNICA",
                "cfu": 6
            },
            {
                "name": "TOPOGRAFIA E TECN. DI RILEVAMENTO + INFRASTRUTTURE VIARIE",
                "cfu": 12
            },
            {
                "name": "FISICA TECNICA AMBIENTALE ",
                "cfu": 6
            },
            {
                "name": "SCIENZA DELLE COSTRUZIONI",
                "cfu": 12
            },
            {
                "name": "TECNICA URBANISTICA",
                "cfu": 12
            },
            {
                "name": "ESTIMO",
                "cfu": 6
            },
            {
                "name": "GEOTECNICA",
                "cfu": 6
            },
            {
                "name": "TECNICA DELLE COSTRUZIONI",
                "cfu": 12
            },
            {
                "name": "PRODUZIONE EDILIZIA E CANTIERE",
                "cfu": 12
            },
            {
                "name": "PROVA FINALE",
                "cfu": 3
            },
            {
                "name": "TIPOLOGIE E TECNOLOGIE EDILIZIE",
                "cfu": 6
            },
            {
                "name": "TIROCINIO",
                "cfu": 3
            },
            {
                "name": "LINGUA INGLESE B1",
                "cfu": 0
            },
            {
                "name": "ESAME A SCELTA",
                "cfu": 6
            },
            {
                "name": "ESAME A SCELTA",
                "cfu": 6
            }
        ]
    },
    "2017": {}
}