{
    "2009": {
        "[LT04-01] - ELETTRONICA": [
            {
                "name": "ECONOMIA ED ORGANIZZAZIONE AZIENDALE ",
                "cfu": 6
            },
            {
                "name": "FONDAMENTI DI INFORMATICA",
                "cfu": 9
            },
            {
                "name": "GEOMETRIA E ALGEBRA",
                "cfu": 6
            },
            {
                "name": "INGLESE",
                "cfu": 3
            },
            {
                "name": "CHIMICA",
                "cfu": 6
            },
            {
                "name": "FISICA GENERALE A",
                "cfu": 12
            },
            {
                "name": "LABORATORIO DI INFORMATICA",
                "cfu": 3
            },
            {
                "name": "ANALISI MATEMATICA",
                "cfu": 12
            },
            {
                "name": "COMPLEMENTI DI ANALISI MATEMATICA",
                "cfu": 6
            },
            {
                "name": "FISICA GENERALE B",
                "cfu": 6
            },
            {
                "name": "FONDAMENTI DI TEORIA DEI CIRCUITI",
                "cfu": 6
            },
            {
                "name": "CAMPI ELETTROMAGNETICI ",
                "cfu": 6
            },
            {
                "name": "COMUNICAZIONI ELETTRICHE",
                "cfu": 12
            },
            {
                "name": "DISPOSITIVI ELETTRONICI",
                "cfu": 12
            },
            {
                "name": "FONDAMENTI DI AUTOMATICA",
                "cfu": 12
            },
            {
                "name": "COMPATIBILITA' ELETTROMAGNETICA",
                "cfu": 6
            },
            {
                "name": "FONDAMENTI DI OPTOELETTRONICA",
                "cfu": 6
            },
            {
                "name": "MISURE E STRUMENTAZIONE ELETTRONICA",
                "cfu": 6
            },
            {
                "name": "PROGETTAZIONE AUTOMATICA DI CIRCUITI ELETTRONICI",
                "cfu": 6
            },
            {
                "name": "PROVA FINALE",
                "cfu": 3
            },
            {
                "name": "ELETTRONICA DEI SISTEMI DIGITALI",
                "cfu": 12
            },
            {
                "name": "FONDAMENTI DI ELETTRONICA",
                "cfu": 12
            },
            {
                "name": "ESAME A SCELTA",
                "cfu": 6
            },
            {
                "name": "ESAME A SCELTA",
                "cfu": 6
            }
        ],
        "[LT04-02] - TELECOMUNICAZIONI": [
            {
                "name": "ECONOMIA ED ORGANIZZAZIONE AZIENDALE ",
                "cfu": 6
            },
            {
                "name": "FONDAMENTI DI INFORMATICA",
                "cfu": 9
            },
            {
                "name": "GEOMETRIA E ALGEBRA",
                "cfu": 6
            },
            {
                "name": "INGLESE",
                "cfu": 3
            },
            {
                "name": "CALCOLO NUMERICO",
                "cfu": 3
            },
            {
                "name": "FISICA GENERALE A",
                "cfu": 12
            },
            {
                "name": "LABORATORIO DI INFORMATICA",
                "cfu": 3
            },
            {
                "name": "ANALISI MATEMATICA",
                "cfu": 12
            },
            {
                "name": "COMPLEMENTI DI ANALISI MATEMATICA",
                "cfu": 6
            },
            {
                "name": "FISICA GENERALE B",
                "cfu": 6
            },
            {
                "name": "FONDAMENTI DELLA MISURAZIONE",
                "cfu": 6
            },
            {
                "name": "FONDAMENTI DI TEORIA DEI CIRCUITI",
                "cfu": 6
            },
            {
                "name": "CAMPI ELETTROMAGNETICI ",
                "cfu": 6
            },
            {
                "name": "SISTEMI OPERATIVI",
                "cfu": 9
            },
            {
                "name": "COMUNICAZIONI ELETTRICHE",
                "cfu": 12
            },
            {
                "name": "FONDAMENTI DI AUTOMATICA",
                "cfu": 12
            },
            {
                "name": "ELABORAZIONE NUMERICA DEI SEGNALI",
                "cfu": 9
            },
            {
                "name": "RETI DI TELECOMUNICAZIONI",
                "cfu": 9
            },
            {
                "name": "ELETTRONICA DIGITALE PER LE TELECOMUNICAZIONI",
                "cfu": 6
            },
            {
                "name": "PROVA FINALE",
                "cfu": 3
            },
            {
                "name": "FONDAMENTI DI ELETTRONICA",
                "cfu": 12
            },
            {
                "name": "MICROONDE E ANTENNE",
                "cfu": 12
            },
            {
                "name": "ESAME A SCELTA",
                "cfu": 6
            },
            {
                "name": "ESAME A SCELTA",
                "cfu": 6
            }
        ]
    },
    "2010": {},
    "2011": {
        "[LT04-3] - ELETTRONICA": [
            {
                "name": "ECONOMIA ED ORGANIZZAZIONE AZIENDALE ",
                "cfu": 6
            },
            {
                "name": "FONDAMENTI DI INFORMATICA",
                "cfu": 9
            },
            {
                "name": "GEOMETRIA E ALGEBRA",
                "cfu": 6
            },
            {
                "name": "INGLESE",
                "cfu": 3
            },
            {
                "name": "CALCOLO NUMERICO",
                "cfu": 6
            },
            {
                "name": "FISICA GENERALE A",
                "cfu": 12
            },
            {
                "name": "LABORATORIO DI INFORMATICA",
                "cfu": 3
            },
            {
                "name": "ANALISI MATEMATICA",
                "cfu": 12
            },
            {
                "name": "CHIMICA",
                "cfu": 6
            },
            {
                "name": "FISICA GENERALE B",
                "cfu": 6
            },
            {
                "name": "FONDAMENTI DI DISPOSITIVI ELETTRONICI",
                "cfu": 6
            },
            {
                "name": "FONDAMENTI DI TEORIA DEI CIRCUITI",
                "cfu": 6
            },
            {
                "name": "CAMPI ELETTROMAGNETICI ",
                "cfu": 6
            },
            {
                "name": "COMUNICAZIONI ELETTRICHE",
                "cfu": 12
            },
            {
                "name": "FONDAMENTI DI AUTOMATICA",
                "cfu": 12
            },
            {
                "name": "COMPLEMENTI DI ANALISI MATEMATICA",
                "cfu": 6
            },
            {
                "name": "FONDAMENTI DI ELETTRONICA DEI SISTEMI DIGITALI",
                "cfu": 6
            },
            {
                "name": "FONDAMENTI DI OPTOELETTRONICA",
                "cfu": 6
            },
            {
                "name": "MISURE E STRUMENTAZIONE ELETTRONICA",
                "cfu": 6
            },
            {
                "name": "PROGETTAZIONE AUTOMATICA DI CIRCUITI ELETTRONICI",
                "cfu": 6
            },
            {
                "name": "PROVA FINALE",
                "cfu": 3
            },
            {
                "name": "FONDAMENTI DI ELETTRONICA",
                "cfu": 12
            },
            {
                "name": "MICROONDE E ANTENNE",
                "cfu": 12
            },
            {
                "name": "ESAME A SCELTA",
                "cfu": 6
            },
            {
                "name": "ESAME A SCELTA",
                "cfu": 6
            }
        ],
        "[LT04-04] - TELECOMUNICAZIONI": [
            {
                "name": "ECONOMIA ED ORGANIZZAZIONE AZIENDALE ",
                "cfu": 6
            },
            {
                "name": "FONDAMENTI DI INFORMATICA",
                "cfu": 9
            },
            {
                "name": "GEOMETRIA E ALGEBRA",
                "cfu": 6
            },
            {
                "name": "INGLESE",
                "cfu": 3
            },
            {
                "name": "CALCOLO NUMERICO",
                "cfu": 6
            },
            {
                "name": "FISICA GENERALE A",
                "cfu": 12
            },
            {
                "name": "LABORATORIO DI INFORMATICA",
                "cfu": 3
            },
            {
                "name": "ANALISI MATEMATICA",
                "cfu": 12
            },
            {
                "name": "COMPLEMENTI DI ANALISI MATEMATICA",
                "cfu": 6
            },
            {
                "name": "FISICA GENERALE B",
                "cfu": 6
            },
            {
                "name": "FONDAMENTI DI SISTEMI OPERATIVI",
                "cfu": 6
            },
            {
                "name": "FONDAMENTI DI TEORIA DEI CIRCUITI",
                "cfu": 6
            },
            {
                "name": "CAMPI ELETTROMAGNETICI ",
                "cfu": 6
            },
            {
                "name": "COMUNICAZIONI ELETTRICHE",
                "cfu": 12
            },
            {
                "name": "FONDAMENTI DI AUTOMATICA",
                "cfu": 12
            },
            {
                "name": "FONDAMENTI DI ELETTRONICA DEI SISTEMI DIGITALI",
                "cfu": 6
            },
            {
                "name": "MISURE E STRUMENTAZIONE ELETTRONICA",
                "cfu": 6
            },
            {
                "name": "PROVA FINALE",
                "cfu": 3
            },
            {
                "name": "RETI DI TELECOMUNICAZIONI",
                "cfu": 6
            },
            {
                "name": "ELABORAZIONE NUMERICA DEI SEGNALI",
                "cfu": 12
            },
            {
                "name": "FONDAMENTI DI ELETTRONICA",
                "cfu": 12
            },
            {
                "name": "MICROONDE E ANTENNE",
                "cfu": 12
            },
            {
                "name": "ESAME A SCELTA",
                "cfu": 6
            },
            {
                "name": "ESAME A SCELTA",
                "cfu": 6
            }
        ],
        "[LT04-05] - ELETTRONICA PER L'INDUSTRIA E L'AMBIENTE - TARANTO": [
            {
                "name": "ECONOMIA ED ORGANIZZAZIONE AZIENDALE ",
                "cfu": 6
            },
            {
                "name": "FONDAMENTI DI INFORMATICA",
                "cfu": 9
            },
            {
                "name": "GEOMETRIA E ALGEBRA",
                "cfu": 6
            },
            {
                "name": "INGLESE",
                "cfu": 3
            },
            {
                "name": "CALCOLO NUMERICO",
                "cfu": 6
            },
            {
                "name": "FISICA GENERALE A",
                "cfu": 12
            },
            {
                "name": "LABORATORIO DI INFORMATICA",
                "cfu": 3
            },
            {
                "name": "ANALISI MATEMATICA",
                "cfu": 12
            },
            {
                "name": "CHIMICA",
                "cfu": 6
            },
            {
                "name": "COMPLEMENTI DI ANALISI MATEMATICA",
                "cfu": 6
            },
            {
                "name": "FISICA GENERALE B",
                "cfu": 6
            },
            {
                "name": "FONDAMENTI DI TEORIA DEI CIRCUITI",
                "cfu": 6
            },
            {
                "name": "COMUNICAZIONI ELETTRICHE",
                "cfu": 12
            },
            {
                "name": "FONDAMENTI DI AUTOMATICA",
                "cfu": 12
            },
            {
                "name": "FISICA TECNICA E TECNOLOGIA DEI MATERIALI",
                "cfu": 12
            },
            {
                "name": "FONDAMENTI DI ELETTRONICA DEI SISTEMI DIGITALI",
                "cfu": 6
            },
            {
                "name": "FONDAMENTI DI SISTEMI INFORMATIVI",
                "cfu": 6
            },
            {
                "name": "CAMPI E CIRCUITI ELETTROMAGNETICI",
                "cfu": 12
            },
            {
                "name": "FONDAMENTI DI ELETTRONICA",
                "cfu": 12
            },
            {
                "name": "MISURE ELETTRONICHE",
                "cfu": 12
            },
            {
                "name": "PROVA FINALE",
                "cfu": 3
            },
            {
                "name": "ESAME A SCELTA",
                "cfu": 6
            },
            {
                "name": "ESAME A SCELTA",
                "cfu": 6
            }
        ]
    },
    "2012": {
        "[LT04-3] - ELETTRONICA": [
            {
                "name": "ECONOMIA ED ORGANIZZAZIONE AZIENDALE ",
                "cfu": 6
            },
            {
                "name": "FONDAMENTI DI INFORMATICA",
                "cfu": 9
            },
            {
                "name": "GEOMETRIA E ALGEBRA",
                "cfu": 6
            },
            {
                "name": "INGLESE",
                "cfu": 3
            },
            {
                "name": "CALCOLO NUMERICO",
                "cfu": 6
            },
            {
                "name": "FISICA GENERALE A",
                "cfu": 12
            },
            {
                "name": "LABORATORIO DI INFORMATICA",
                "cfu": 3
            },
            {
                "name": "ANALISI MATEMATICA",
                "cfu": 12
            },
            {
                "name": "CHIMICA",
                "cfu": 6
            },
            {
                "name": "COMPLEMENTI DI ANALISI MATEMATICA",
                "cfu": 6
            },
            {
                "name": "FISICA GENERALE B",
                "cfu": 6
            },
            {
                "name": "FONDAMENTI DI DISPOSITIVI ELETTRONICI",
                "cfu": 6
            },
            {
                "name": "FONDAMENTI DI TEORIA DEI CIRCUITI",
                "cfu": 6
            },
            {
                "name": "CAMPI ELETTROMAGNETICI ",
                "cfu": 6
            },
            {
                "name": "COMUNICAZIONI ELETTRICHE",
                "cfu": 12
            },
            {
                "name": "FONDAMENTI DI AUTOMATICA",
                "cfu": 12
            },
            {
                "name": "FONDAMENTI DI ELETTRONICA DEI SISTEMI DIGITALI",
                "cfu": 6
            },
            {
                "name": "FONDAMENTI DI OPTOELETTRONICA",
                "cfu": 6
            },
            {
                "name": "MISURE E STRUMENTAZIONE ELETTRONICA",
                "cfu": 6
            },
            {
                "name": "PROGETTAZIONE AUTOMATICA DI CIRCUITI ELETTRONICI",
                "cfu": 6
            },
            {
                "name": "PROVA FINALE",
                "cfu": 3
            },
            {
                "name": "FONDAMENTI DI ELETTRONICA",
                "cfu": 12
            },
            {
                "name": "MICROONDE E ANTENNE",
                "cfu": 12
            },
            {
                "name": "ESAME A SCELTA",
                "cfu": 6
            },
            {
                "name": "ESAME A SCELTA",
                "cfu": 6
            }
        ],
        "[LT04-04] - TELECOMUNICAZIONI": [
            {
                "name": "ECONOMIA ED ORGANIZZAZIONE AZIENDALE ",
                "cfu": 6
            },
            {
                "name": "FONDAMENTI DI INFORMATICA",
                "cfu": 9
            },
            {
                "name": "GEOMETRIA E ALGEBRA",
                "cfu": 6
            },
            {
                "name": "CALCOLO NUMERICO",
                "cfu": 6
            },
            {
                "name": "FISICA GENERALE A",
                "cfu": 12
            },
            {
                "name": "INGLESE",
                "cfu": 3
            },
            {
                "name": "LABORATORIO DI INFORMATICA",
                "cfu": 3
            },
            {
                "name": "ANALISI MATEMATICA",
                "cfu": 12
            },
            {
                "name": "COMPLEMENTI DI ANALISI MATEMATICA",
                "cfu": 6
            },
            {
                "name": "FISICA GENERALE B",
                "cfu": 6
            },
            {
                "name": "FONDAMENTI DI SISTEMI OPERATIVI",
                "cfu": 6
            },
            {
                "name": "FONDAMENTI DI TEORIA DEI CIRCUITI",
                "cfu": 6
            },
            {
                "name": "CAMPI ELETTROMAGNETICI ",
                "cfu": 6
            },
            {
                "name": "COMUNICAZIONI ELETTRICHE",
                "cfu": 12
            },
            {
                "name": "FONDAMENTI DI AUTOMATICA",
                "cfu": 12
            },
            {
                "name": "FONDAMENTI DI ELETTRONICA DEI SISTEMI DIGITALI",
                "cfu": 6
            },
            {
                "name": "MISURE E STRUMENTAZIONE ELETTRONICA",
                "cfu": 6
            },
            {
                "name": "PROVA FINALE",
                "cfu": 3
            },
            {
                "name": "RETI DI TELECOMUNICAZIONI",
                "cfu": 6
            },
            {
                "name": "ELABORAZIONE NUMERICA DEI SEGNALI",
                "cfu": 12
            },
            {
                "name": "FONDAMENTI DI ELETTRONICA",
                "cfu": 12
            },
            {
                "name": "MICROONDE E ANTENNE",
                "cfu": 12
            },
            {
                "name": "ESAME A SCELTA",
                "cfu": 6
            },
            {
                "name": "ESAME A SCELTA",
                "cfu": 6
            }
        ],
        "[LT04-05] - ELETTRONICA PER L'INDUSTRIA E L'AMBIENTE - TARANTO": [
            {
                "name": "ECONOMIA ED ORGANIZZAZIONE AZIENDALE ",
                "cfu": 6
            },
            {
                "name": "GEOMETRIA E ALGEBRA",
                "cfu": 6
            },
            {
                "name": "CALCOLO NUMERICO",
                "cfu": 6
            },
            {
                "name": "FISICA GENERALE A",
                "cfu": 12
            },
            {
                "name": "INGLESE",
                "cfu": 3
            },
            {
                "name": "LABORATORIO DI INFORMATICA",
                "cfu": 3
            },
            {
                "name": "ANALISI MATEMATICA",
                "cfu": 12
            },
            {
                "name": "FONDAMENTI DI INFORMATICA",
                "cfu": 9
            },
            {
                "name": "CHIMICA",
                "cfu": 6
            },
            {
                "name": "COMPLEMENTI DI ANALISI MATEMATICA",
                "cfu": 6
            },
            {
                "name": "FISICA GENERALE B",
                "cfu": 6
            },
            {
                "name": "FONDAMENTI DI TEORIA DEI CIRCUITI",
                "cfu": 6
            },
            {
                "name": "COMUNICAZIONI ELETTRICHE",
                "cfu": 12
            },
            {
                "name": "FISICA TECNICA E TECNOLOGIA DEI MATERIALI",
                "cfu": 12
            },
            {
                "name": "FONDAMENTI DI AUTOMATICA",
                "cfu": 12
            },
            {
                "name": "FONDAMENTI DI ELETTRONICA DEI SISTEMI DIGITALI",
                "cfu": 6
            },
            {
                "name": "FONDAMENTI DI SISTEMI INFORMATIVI",
                "cfu": 6
            },
            {
                "name": "PROVA FINALE",
                "cfu": 3
            },
            {
                "name": "CAMPI E CIRCUITI ELETTROMAGNETICI",
                "cfu": 12
            },
            {
                "name": "FONDAMENTI DI ELETTRONICA",
                "cfu": 12
            },
            {
                "name": "MISURE ELETTRONICHE",
                "cfu": 12
            },
            {
                "name": "ESAME A SCELTA",
                "cfu": 6
            },
            {
                "name": "ESAME A SCELTA",
                "cfu": 6
            }
        ]
    },
    "2013": {
        "[LT04-20] - INGEGNERIA ELETTRONICA": [
            {
                "name": "ECONOMIA ED ORGANIZZAZIONE AZIENDALE ",
                "cfu": 6
            },
            {
                "name": "FONDAMENTI DI INFORMATICA",
                "cfu": 9
            },
            {
                "name": "GEOMETRIA E ALGEBRA",
                "cfu": 6
            },
            {
                "name": "INGLESE",
                "cfu": 3
            },
            {
                "name": "CALCOLO NUMERICO",
                "cfu": 6
            },
            {
                "name": "FISICA GENERALE A",
                "cfu": 12
            },
            {
                "name": "LABORATORIO DI INFORMATICA",
                "cfu": 3
            },
            {
                "name": "ANALISI MATEMATICA",
                "cfu": 12
            },
            {
                "name": "CAMPI ELETTROMAGNETICI ",
                "cfu": 6
            },
            {
                "name": "CHIMICA",
                "cfu": 6
            },
            {
                "name": "COMPLEMENTI DI ANALISI MATEMATICA",
                "cfu": 6
            },
            {
                "name": "COMUNICAZIONI ELETTRICHE",
                "cfu": 12
            },
            {
                "name": "FISICA GENERALE B",
                "cfu": 6
            },
            {
                "name": "FONDAMENTI DI AUTOMATICA",
                "cfu": 12
            },
            {
                "name": "FONDAMENTI DI DISPOSITIVI ELETTRONICI",
                "cfu": 6
            },
            {
                "name": "FONDAMENTI DI TEORIA DEI CIRCUITI",
                "cfu": 6
            },
            {
                "name": "FONDAMENTI DI ELETTRONICA",
                "cfu": 12
            },
            {
                "name": "FONDAMENTI DI ELETTRONICA DEI SISTEMI DIGITALI",
                "cfu": 6
            },
            {
                "name": "FONDAMENTI DI OPTOELETTRONICA",
                "cfu": 6
            },
            {
                "name": "MICROONDE E ANTENNE",
                "cfu": 12
            },
            {
                "name": "MISURE E STRUMENTAZIONE ELETTRONICA",
                "cfu": 6
            },
            {
                "name": "PROGETTAZIONE AUTOMATICA DI CIRCUITI ELETTRONICI",
                "cfu": 6
            },
            {
                "name": "PROVA FINALE",
                "cfu": 3
            },
            {
                "name": "ESAME A SCELTA",
                "cfu": 6
            },
            {
                "name": "ESAME A SCELTA",
                "cfu": 6
            }
        ],
        "[LT04-21] - INGEGNERIA DELLE TELECOMUNICAZIONI": [
            {
                "name": "ECONOMIA ED ORGANIZZAZIONE AZIENDALE ",
                "cfu": 6
            },
            {
                "name": "FONDAMENTI DI INFORMATICA",
                "cfu": 9
            },
            {
                "name": "GEOMETRIA E ALGEBRA",
                "cfu": 6
            },
            {
                "name": "INGLESE",
                "cfu": 3
            },
            {
                "name": "CALCOLO NUMERICO",
                "cfu": 6
            },
            {
                "name": "FISICA GENERALE A",
                "cfu": 12
            },
            {
                "name": "LABORATORIO DI INFORMATICA",
                "cfu": 3
            },
            {
                "name": "ANALISI MATEMATICA",
                "cfu": 12
            },
            {
                "name": "CAMPI ELETTROMAGNETICI ",
                "cfu": 6
            },
            {
                "name": "CHIMICA",
                "cfu": 6
            },
            {
                "name": "COMPLEMENTI DI ANALISI MATEMATICA",
                "cfu": 6
            },
            {
                "name": "COMUNICAZIONI ELETTRICHE",
                "cfu": 12
            },
            {
                "name": "FISICA GENERALE B",
                "cfu": 6
            },
            {
                "name": "FONDAMENTI DI AUTOMATICA",
                "cfu": 12
            },
            {
                "name": "FONDAMENTI DI DISPOSITIVI ELETTRONICI",
                "cfu": 6
            },
            {
                "name": "FONDAMENTI DI TEORIA DEI CIRCUITI",
                "cfu": 6
            },
            {
                "name": "ELABORAZIONE NUMERICA DEI SEGNALI",
                "cfu": 12
            },
            {
                "name": "FONDAMENTI DI ELETTRONICA",
                "cfu": 12
            },
            {
                "name": "MICROONDE E ANTENNE",
                "cfu": 12
            },
            {
                "name": "MISURE E STRUMENTAZIONE ELETTRONICA",
                "cfu": 6
            },
            {
                "name": "PROVA FINALE",
                "cfu": 3
            },
            {
                "name": "RETI DI TELECOMUNICAZIONI",
                "cfu": 6
            },
            {
                "name": "ESAME A SCELTA",
                "cfu": 6
            },
            {
                "name": "ESAME A SCELTA",
                "cfu": 6
            }
        ],
        "[LT04-22_TA] - INGEGNERIA ELETTRONICA PER L'INDUSTRIA E L'AMBIENTE": [
            {
                "name": "ANALISI MATEMATICA",
                "cfu": 12
            },
            {
                "name": "ECONOMIA ED ORGANIZZAZIONE AZIENDALE ",
                "cfu": 6
            },
            {
                "name": "GEOMETRIA E ALGEBRA",
                "cfu": 6
            },
            {
                "name": "CHIMICA",
                "cfu": 6
            },
            {
                "name": "FONDAMENTI DELLA MISURAZIONE E METROLOGIA",
                "cfu": 6
            },
            {
                "name": "FONDAMENTI DI INFORMATICA",
                "cfu": 9
            },
            {
                "name": "LABORATORIO DI INFORMATICA",
                "cfu": 3
            },
            {
                "name": "FISICA GENERALE A",
                "cfu": 12
            },
            {
                "name": "CAMPI E CIRCUITI ELETTROMAGNETICI",
                "cfu": 12
            },
            {
                "name": "COMPLEMENTI DI ANALISI MATEMATICA",
                "cfu": 6
            },
            {
                "name": "COMUNICAZIONI ELETTRICHE",
                "cfu": 12
            },
            {
                "name": "FISICA GENERALE B",
                "cfu": 6
            },
            {
                "name": "FONDAMENTI DI AUTOMATICA",
                "cfu": 12
            },
            {
                "name": "FONDAMENTI DI TEORIA DEI CIRCUITI",
                "cfu": 6
            },
            {
                "name": "INGLESE",
                "cfu": 3
            },
            {
                "name": "CALCOLO NUMERICO",
                "cfu": 6
            },
            {
                "name": "FONDAMENTI DI ELETTRONICA",
                "cfu": 12
            },
            {
                "name": "FONDAMENTI DI ELETTRONICA DEI SISTEMI DIGITALI",
                "cfu": 6
            },
            {
                "name": "MISURE ELETTRONICHE",
                "cfu": 12
            },
            {
                "name": "PROVA FINALE",
                "cfu": 3
            },
            {
                "name": "TIROCINIO",
                "cfu": 6
            },
            {
                "name": "ESAME A SCELTA",
                "cfu": 6
            },
            {
                "name": "ESAME A SCELTA",
                "cfu": 6
            },
            {
                "name": "ESAME A SCELTA",
                "cfu": 6
            }
        ]
    },
    "2014": {
        "[LT04-20] - INGEGNERIA ELETTRONICA": [
            {
                "name": "ECONOMIA ED ORGANIZZAZIONE AZIENDALE ",
                "cfu": 6
            },
            {
                "name": "FONDAMENTI DI INFORMATICA",
                "cfu": 9
            },
            {
                "name": "GEOMETRIA E ALGEBRA",
                "cfu": 6
            },
            {
                "name": "INGLESE",
                "cfu": 3
            },
            {
                "name": "CALCOLO NUMERICO",
                "cfu": 6
            },
            {
                "name": "FISICA GENERALE A",
                "cfu": 12
            },
            {
                "name": "LABORATORIO DI INFORMATICA",
                "cfu": 3
            },
            {
                "name": "ANALISI MATEMATICA",
                "cfu": 12
            },
            {
                "name": "CAMPI ELETTROMAGNETICI ",
                "cfu": 6
            },
            {
                "name": "CHIMICA",
                "cfu": 6
            },
            {
                "name": "COMPLEMENTI DI ANALISI MATEMATICA",
                "cfu": 6
            },
            {
                "name": "COMUNICAZIONI ELETTRICHE",
                "cfu": 12
            },
            {
                "name": "FISICA GENERALE B",
                "cfu": 6
            },
            {
                "name": "FONDAMENTI DI AUTOMATICA",
                "cfu": 12
            },
            {
                "name": "FONDAMENTI DI DISPOSITIVI ELETTRONICI",
                "cfu": 6
            },
            {
                "name": "FONDAMENTI DI TEORIA DEI CIRCUITI",
                "cfu": 6
            },
            {
                "name": "FONDAMENTI DI ELETTRONICA",
                "cfu": 12
            },
            {
                "name": "FONDAMENTI DI ELETTRONICA DEI SISTEMI DIGITALI",
                "cfu": 6
            },
            {
                "name": "FONDAMENTI DI OPTOELETTRONICA",
                "cfu": 6
            },
            {
                "name": "MICROONDE E ANTENNE",
                "cfu": 12
            },
            {
                "name": "MISURE E STRUMENTAZIONE ELETTRONICA",
                "cfu": 6
            },
            {
                "name": "PROGETTAZIONE AUTOMATICA DI CIRCUITI ELETTRONICI",
                "cfu": 6
            },
            {
                "name": "PROVA FINALE",
                "cfu": 3
            },
            {
                "name": "ESAME A SCELTA",
                "cfu": 6
            },
            {
                "name": "ESAME A SCELTA",
                "cfu": 6
            }
        ],
        "[LT04-21] - INGEGNERIA DELLE TELECOMUNICAZIONI": [
            {
                "name": "ECONOMIA ED ORGANIZZAZIONE AZIENDALE ",
                "cfu": 6
            },
            {
                "name": "FONDAMENTI DI INFORMATICA",
                "cfu": 9
            },
            {
                "name": "GEOMETRIA E ALGEBRA",
                "cfu": 6
            },
            {
                "name": "INGLESE",
                "cfu": 3
            },
            {
                "name": "CALCOLO NUMERICO",
                "cfu": 6
            },
            {
                "name": "FISICA GENERALE A",
                "cfu": 12
            },
            {
                "name": "LABORATORIO DI INFORMATICA",
                "cfu": 3
            },
            {
                "name": "ANALISI MATEMATICA",
                "cfu": 12
            },
            {
                "name": "CAMPI ELETTROMAGNETICI ",
                "cfu": 6
            },
            {
                "name": "CHIMICA",
                "cfu": 6
            },
            {
                "name": "COMPLEMENTI DI ANALISI MATEMATICA",
                "cfu": 6
            },
            {
                "name": "COMUNICAZIONI ELETTRICHE",
                "cfu": 12
            },
            {
                "name": "FISICA GENERALE B",
                "cfu": 6
            },
            {
                "name": "FONDAMENTI DI AUTOMATICA",
                "cfu": 12
            },
            {
                "name": "FONDAMENTI DI DISPOSITIVI ELETTRONICI",
                "cfu": 6
            },
            {
                "name": "FONDAMENTI DI TEORIA DEI CIRCUITI",
                "cfu": 6
            },
            {
                "name": "ELABORAZIONE NUMERICA DEI SEGNALI",
                "cfu": 12
            },
            {
                "name": "FONDAMENTI DI ELETTRONICA",
                "cfu": 12
            },
            {
                "name": "MICROONDE E ANTENNE",
                "cfu": 12
            },
            {
                "name": "MISURE E STRUMENTAZIONE ELETTRONICA",
                "cfu": 6
            },
            {
                "name": "PROVA FINALE",
                "cfu": 3
            },
            {
                "name": "RETI DI TELECOMUNICAZIONI",
                "cfu": 6
            },
            {
                "name": "ESAME A SCELTA",
                "cfu": 6
            },
            {
                "name": "ESAME A SCELTA",
                "cfu": 6
            }
        ],
        "[LT04-22_TA] - INGEGNERIA ELETTRONICA PER L'INDUSTRIA E L'AMBIENTE": [
            {
                "name": "ANALISI MATEMATICA",
                "cfu": 12
            },
            {
                "name": "ECONOMIA ED ORGANIZZAZIONE AZIENDALE ",
                "cfu": 6
            },
            {
                "name": "GEOMETRIA E ALGEBRA",
                "cfu": 6
            },
            {
                "name": "CALCOLO NUMERICO",
                "cfu": 6
            },
            {
                "name": "CHIMICA",
                "cfu": 6
            },
            {
                "name": "FONDAMENTI DI INFORMATICA",
                "cfu": 6
            },
            {
                "name": "LABORATORIO DI INFORMATICA",
                "cfu": 6
            },
            {
                "name": "FISICA GENERALE A",
                "cfu": 12
            },
            {
                "name": "INGLESE",
                "cfu": 3
            },
            {
                "name": "CAMPI E CIRCUITI ELETTROMAGNETICI",
                "cfu": 12
            },
            {
                "name": "COMPLEMENTI DI ANALISI MATEMATICA",
                "cfu": 6
            },
            {
                "name": "COMUNICAZIONI ELETTRICHE",
                "cfu": 12
            },
            {
                "name": "FISICA GENERALE B",
                "cfu": 6
            },
            {
                "name": "FONDAMENTI DI AUTOMATICA",
                "cfu": 12
            },
            {
                "name": "FONDAMENTI DI TEORIA DEI CIRCUITI",
                "cfu": 6
            },
            {
                "name": "FONDAMENTI DI ELETTRONICA",
                "cfu": 12
            },
            {
                "name": "FONDAMENTI DI ELETTRONICA DEI SISTEMI DIGITALI",
                "cfu": 6
            },
            {
                "name": "MISURE ELETTRONICHE",
                "cfu": 12
            },
            {
                "name": "PROVA FINALE",
                "cfu": 3
            },
            {
                "name": "TIROCINIO",
                "cfu": 6
            },
            {
                "name": "MISURE PER L'INDUSTRI E L'AMBIENTE",
                "cfu": 6
            },
            {
                "name": "ESAME A SCELTA",
                "cfu": 6
            },
            {
                "name": "ESAME A SCELTA",
                "cfu": 6
            },
            {
                "name": "ESAME A SCELTA",
                "cfu": 6
            }
        ]
    },
    "2015": {
        "[LT04-23] - INGEGNERIA ELETTRONICA": [
            {
                "name": "ANALISI MATEMATICA I",
                "cfu": 6
            },
            {
                "name": "ECONOMIA ED ORGANIZZAZIONE AZIENDALE ",
                "cfu": 6
            },
            {
                "name": "FONDAMENTI DI INFORMATICA",
                "cfu": 6
            },
            {
                "name": "GEOMETRIA E ALGEBRA",
                "cfu": 6
            },
            {
                "name": "INGLESE",
                "cfu": 3
            },
            {
                "name": "ANALISI MATEMATICA II",
                "cfu": 9
            },
            {
                "name": "CALCOLO NUMERICO",
                "cfu": 6
            },
            {
                "name": "FISICA GENERALE A",
                "cfu": 12
            },
            {
                "name": "LABORATORIO DI INFORMATICA",
                "cfu": 6
            },
            {
                "name": "CAMPI ELETTROMAGNETICI ",
                "cfu": 6
            },
            {
                "name": "CHIMICA",
                "cfu": 6
            },
            {
                "name": "COMUNICAZIONI ELETTRICHE",
                "cfu": 12
            },
            {
                "name": "FISICA GENERALE B",
                "cfu": 6
            },
            {
                "name": "FONDAMENTI DI AUTOMATICA",
                "cfu": 12
            },
            {
                "name": "FONDAMENTI DI DISPOSITIVI ELETTRONICI",
                "cfu": 6
            },
            {
                "name": "FONDAMENTI DI TEORIA DEI CIRCUITI",
                "cfu": 6
            },
            {
                "name": "FONDAMENTI DI ELETTRONICA",
                "cfu": 12
            },
            {
                "name": "FONDAMENTI DI ELETTRONICA DEI SISTEMI DIGITALI",
                "cfu": 6
            },
            {
                "name": "FONDAMENTI DI OPTOELETTRONICA",
                "cfu": 6
            },
            {
                "name": "MICROONDE E ANTENNE",
                "cfu": 12
            },
            {
                "name": "MISURE E STRUMENTAZIONE ELETTRONICA",
                "cfu": 6
            },
            {
                "name": "PROGETTAZIONE AUTOMATICA DI CIRCUITI ELETTRONICI",
                "cfu": 6
            },
            {
                "name": "PROVA FINALE",
                "cfu": 6
            },
            {
                "name": "ESAME A SCELTA",
                "cfu": 6
            },
            {
                "name": "ESAME A SCELTA",
                "cfu": 6
            }
        ],
        "[LT04-24] - INGEGNERIA DELLE TELECOMUNICAZIONI": [
            {
                "name": "ANALISI MATEMATICA I",
                "cfu": 6
            },
            {
                "name": "ECONOMIA ED ORGANIZZAZIONE AZIENDALE ",
                "cfu": 6
            },
            {
                "name": "FONDAMENTI DI INFORMATICA",
                "cfu": 6
            },
            {
                "name": "GEOMETRIA E ALGEBRA",
                "cfu": 6
            },
            {
                "name": "INGLESE",
                "cfu": 3
            },
            {
                "name": "ANALISI MATEMATICA II",
                "cfu": 9
            },
            {
                "name": "CALCOLO NUMERICO",
                "cfu": 6
            },
            {
                "name": "FISICA GENERALE A",
                "cfu": 12
            },
            {
                "name": "LABORATORIO DI INFORMATICA",
                "cfu": 6
            },
            {
                "name": "CAMPI ELETTROMAGNETICI ",
                "cfu": 6
            },
            {
                "name": "CHIMICA",
                "cfu": 6
            },
            {
                "name": "COMUNICAZIONI ELETTRICHE",
                "cfu": 12
            },
            {
                "name": "FISICA GENERALE B",
                "cfu": 6
            },
            {
                "name": "FONDAMENTI DI AUTOMATICA",
                "cfu": 12
            },
            {
                "name": "FONDAMENTI DI DISPOSITIVI ELETTRONICI",
                "cfu": 6
            },
            {
                "name": "FONDAMENTI DI TEORIA DEI CIRCUITI",
                "cfu": 6
            },
            {
                "name": "ELABORAZIONE NUMERICA DEI SEGNALI",
                "cfu": 12
            },
            {
                "name": "FONDAMENTI DI ELETTRONICA",
                "cfu": 12
            },
            {
                "name": "MICROONDE E ANTENNE",
                "cfu": 12
            },
            {
                "name": "MISURE E STRUMENTAZIONE ELETTRONICA",
                "cfu": 6
            },
            {
                "name": "PROVA FINALE",
                "cfu": 6
            },
            {
                "name": "RETI DI TELECOMUNICAZIONI",
                "cfu": 6
            },
            {
                "name": "ESAME A SCELTA",
                "cfu": 6
            },
            {
                "name": "ESAME A SCELTA",
                "cfu": 6
            }
        ]
    },
    "2016": {
        "[LT04-23] - INGEGNERIA ELETTRONICA": [
            {
                "name": "ANALISI MATEMATICA",
                "cfu": 12
            },
            {
                "name": "FISICA 1",
                "cfu": 6
            },
            {
                "name": "FONDAMENTI DI INFORMATICA",
                "cfu": 6
            },
            {
                "name": "GEOMETRIA E ALGEBRA",
                "cfu": 6
            },
            {
                "name": "CALCOLO NUMERICO",
                "cfu": 6
            },
            {
                "name": "CHIMICA",
                "cfu": 6
            },
            {
                "name": "ECONOMIA ED ORGANIZZAZIONE AZIENDALE ",
                "cfu": 6
            },
            {
                "name": "FISICA 2",
                "cfu": 6
            },
            {
                "name": "LABORATORIO DI INFORMATICA",
                "cfu": 6
            },
            {
                "name": "FONDAMENTI DI DISPOSITIVI ELETTRONICI",
                "cfu": 6
            },
            {
                "name": "FONDAMENTI DI TEORIA DEI CIRCUITI",
                "cfu": 6
            },
            {
                "name": "CAMPI ELETTROMAGNETICI ",
                "cfu": 6
            },
            {
                "name": "COMUNICAZIONI ELETTRICHE",
                "cfu": 12
            },
            {
                "name": "FONDAMENTI DI AUTOMATICA",
                "cfu": 12
            },
            {
                "name": "INGLESE",
                "cfu": 3
            },
            {
                "name": "FONDAMENTI DI ELETTRONICA",
                "cfu": 12
            },
            {
                "name": "FONDAMENTI DI ELETTRONICA DEI SISTEMI DIGITALI",
                "cfu": 6
            },
            {
                "name": "FONDAMENTI DI OPTOELETTRONICA",
                "cfu": 6
            },
            {
                "name": "MICROONDE E ANTENNE",
                "cfu": 12
            },
            {
                "name": "MISURE E STRUMENTAZIONE ELETTRONICA",
                "cfu": 6
            },
            {
                "name": "PROGETTAZIONE AUTOMATICA DI CIRCUITI ELETTRONICI",
                "cfu": 6
            },
            {
                "name": "PROVA FINALE",
                "cfu": 6
            },
            {
                "name": "TIROCINIO",
                "cfu": 3
            },
            {
                "name": "FISICA 3",
                "cfu": 6
            },
            {
                "name": "ESAME A SCELTA",
                "cfu": 6
            },
            {
                "name": "ESAME A SCELTA",
                "cfu": 6
            }
        ],
        "[LT04-24] - INGEGNERIA DELLE TELECOMUNICAZIONI": [
            {
                "name": "ANALISI MATEMATICA",
                "cfu": 12
            },
            {
                "name": "FISICA 1",
                "cfu": 6
            },
            {
                "name": "FONDAMENTI DI INFORMATICA",
                "cfu": 6
            },
            {
                "name": "GEOMETRIA E ALGEBRA",
                "cfu": 6
            },
            {
                "name": "CALCOLO NUMERICO",
                "cfu": 6
            },
            {
                "name": "CHIMICA",
                "cfu": 6
            },
            {
                "name": "ECONOMIA ED ORGANIZZAZIONE AZIENDALE ",
                "cfu": 6
            },
            {
                "name": "FISICA 2",
                "cfu": 6
            },
            {
                "name": "LABORATORIO DI INFORMATICA",
                "cfu": 6
            },
            {
                "name": "FONDAMENTI DI DISPOSITIVI ELETTRONICI",
                "cfu": 6
            },
            {
                "name": "FONDAMENTI DI TEORIA DEI CIRCUITI",
                "cfu": 6
            },
            {
                "name": "CAMPI ELETTROMAGNETICI ",
                "cfu": 6
            },
            {
                "name": "COMUNICAZIONI ELETTRICHE",
                "cfu": 12
            },
            {
                "name": "FONDAMENTI DI AUTOMATICA",
                "cfu": 12
            },
            {
                "name": "INGLESE",
                "cfu": 3
            },
            {
                "name": "ELABORAZIONE NUMERICA DEI SEGNALI",
                "cfu": 12
            },
            {
                "name": "FONDAMENTI DI ELETTRONICA",
                "cfu": 12
            },
            {
                "name": "MICROONDE E ANTENNE",
                "cfu": 12
            },
            {
                "name": "MISURE E STRUMENTAZIONE ELETTRONICA",
                "cfu": 6
            },
            {
                "name": "PROVA FINALE",
                "cfu": 6
            },
            {
                "name": "RETI DI TELECOMUNICAZIONI",
                "cfu": 6
            },
            {
                "name": "TIROCINIO",
                "cfu": 3
            },
            {
                "name": "FISICA 3",
                "cfu": 6
            },
            {
                "name": "ESAME A SCELTA",
                "cfu": 6
            },
            {
                "name": "ESAME A SCELTA",
                "cfu": 6
            }
        ]
    },
    "2017": {}
}