{
    "2009": {
        "[LM02-01] - PROGETTAZIONE EDILIZIA": [
            {
                "name": "SCIENZA DELLE COSTRUZIONI II E DINAMICA DELLE STRUTTURE",
                "cfu": 9
            },
            {
                "name": "STORIA E TECNICHE DEL RESTAURO ",
                "cfu": 9
            },
            {
                "name": "TIPOLOGIE E TECNOLOGIE EDILIZIE",
                "cfu": 12
            },
            {
                "name": "COMPOSIZIONE ARCHITETTONICA E URBANA",
                "cfu": 9
            },
            {
                "name": "DIRITTO URBANISTICO E LEGISLAZIONE DELLE OO.PP.",
                "cfu": 6
            },
            {
                "name": "ESTIMO",
                "cfu": 6
            },
            {
                "name": "TECNICA E PIANIFICAZIONE URBANISTICA ",
                "cfu": 9
            },
            {
                "name": "AMBIENTE E SISTEMI EDILIZI",
                "cfu": 6
            },
            {
                "name": "FONDAZIONI - GEOLOGIA TECNICA",
                "cfu": 9
            },
            {
                "name": "PROGETTAZIONE ED INNOVAZIONE DI COMPONENTI E SISTEMI EDILIZI",
                "cfu": 9
            },
            {
                "name": "TECNICA DELLE COSTRUZIONI II E COSTRUZIONI IN ZONA SISMICA",
                "cfu": 9
            },
            {
                "name": "LABORATORIO DI TESI",
                "cfu": 12
            },
            {
                "name": "TIROCINIO FINALE + STAGE",
                "cfu": 3
            },
            {
                "name": "ESAME A SCELTA",
                "cfu": 6
            },
            {
                "name": "ESAME A SCELTA",
                "cfu": 6
            }
        ],
        "[LM02-02] - RECUPERO E RIGENERAZIONE URBANA": [
            {
                "name": "SCIENZA DELLE COSTRUZIONI II E DINAMICA DELLE STRUTTURE",
                "cfu": 9
            },
            {
                "name": "STORIA E TECNICHE DEL RESTAURO ",
                "cfu": 9
            },
            {
                "name": "TIPOLOGIE E TECNOLOGIE EDILIZIE",
                "cfu": 12
            },
            {
                "name": "COMPOSIZIONE ARCHITETTONICA E URBANA",
                "cfu": 9
            },
            {
                "name": "DIRITTO URBANISTICO E LEGISLAZIONE DELLE OO.PP.",
                "cfu": 6
            },
            {
                "name": "ESTIMO",
                "cfu": 6
            },
            {
                "name": "TECNICA E PIANIFICAZIONE URBANISTICA ",
                "cfu": 9
            },
            {
                "name": "PROGETTAZIONE E TRASFORMAZIONE URBANA",
                "cfu": 9
            },
            {
                "name": "RECUPERO E CONSERVAZIONE DEGLI EDIFICI ",
                "cfu": 9
            },
            {
                "name": "TECNICA DELLE COSTRUZIONI II E COSTRUZIONI IN ZONA SISMICA",
                "cfu": 9
            },
            {
                "name": "TOPOGRAFIA E TECNICHE DI RILEVAMENTO",
                "cfu": 6
            },
            {
                "name": "LABORATORIO DI TESI",
                "cfu": 12
            },
            {
                "name": "TIROCINIO FINALE + STAGE",
                "cfu": 3
            },
            {
                "name": "ESAME A SCELTA",
                "cfu": 6
            },
            {
                "name": "ESAME A SCELTA",
                "cfu": 6
            }
        ],
        "[LM02-03] - SOSTENIBILITA' ED IMPIANTI": [
            {
                "name": "SCIENZA DELLE COSTRUZIONI II E DINAMICA DELLE STRUTTURE",
                "cfu": 9
            },
            {
                "name": "STORIA E TECNICHE DEL RESTAURO ",
                "cfu": 9
            },
            {
                "name": "TIPOLOGIE E TECNOLOGIE EDILIZIE",
                "cfu": 12
            },
            {
                "name": "COMPOSIZIONE ARCHITETTONICA E URBANA",
                "cfu": 9
            },
            {
                "name": "DIRITTO URBANISTICO E LEGISLAZIONE DELLE OO.PP.",
                "cfu": 6
            },
            {
                "name": "ESTIMO",
                "cfu": 6
            },
            {
                "name": "TECNICA E PIANIFICAZIONE URBANISTICA ",
                "cfu": 9
            },
            {
                "name": "IMPIANTI DI CLIMATIZZAZIONE - PRINCIPI DI INGEGNERIA ELETTRICA",
                "cfu": 12
            },
            {
                "name": "SISTEMI DA FONTI RINNOVABILI",
                "cfu": 6
            },
            {
                "name": "SOSTENIBILITA' DEI PROCESSI E SISTEMI EDILIZI",
                "cfu": 6
            },
            {
                "name": "TECNICA DELLE COSTRUZIONI II E COSTRUZIONI IN ZONA SISMICA",
                "cfu": 9
            },
            {
                "name": "LABORATORIO DI TESI",
                "cfu": 12
            },
            {
                "name": "TIROCINIO FINALE + STAGE",
                "cfu": 3
            },
            {
                "name": "ESAME A SCELTA",
                "cfu": 6
            },
            {
                "name": "ESAME A SCELTA",
                "cfu": 6
            }
        ],
        "[LM02-04] - GESTIONE E PROCESSI EDILIZI": [
            {
                "name": "SCIENZA DELLE COSTRUZIONI II E DINAMICA DELLE STRUTTURE",
                "cfu": 9
            },
            {
                "name": "STORIA E TECNICHE DEL RESTAURO ",
                "cfu": 9
            },
            {
                "name": "TIPOLOGIE E TECNOLOGIE EDILIZIE",
                "cfu": 12
            },
            {
                "name": "COMPOSIZIONE ARCHITETTONICA E URBANA",
                "cfu": 9
            },
            {
                "name": "DIRITTO URBANISTICO E LEGISLAZIONE DELLE OO.PP.",
                "cfu": 6
            },
            {
                "name": "ESTIMO",
                "cfu": 6
            },
            {
                "name": "TECNICA E PIANIFICAZIONE URBANISTICA ",
                "cfu": 9
            },
            {
                "name": "ERGOTECNICA EDILE",
                "cfu": 6
            },
            {
                "name": "GESTIONE DEI PROGETTI E FACILITY MANAGEMENT",
                "cfu": 9
            },
            {
                "name": "TECNICA DELLE COSTRUZIONI II E COSTRUZIONI IN ZONA SISMICA",
                "cfu": 9
            },
            {
                "name": "VALUTAZIONE IMMOBILIARE",
                "cfu": 9
            },
            {
                "name": "LABORATORIO DI TESI",
                "cfu": 12
            },
            {
                "name": "TIROCINIO FINALE + STAGE",
                "cfu": 3
            },
            {
                "name": "ESAME A SCELTA",
                "cfu": 6
            },
            {
                "name": "ESAME A SCELTA",
                "cfu": 6
            }
        ]
    },
    "2010": {
        "[PDS0-2010] - Offerta didattica": [
            {
                "name": "PROGETTAZIONE E TRASFORMAZIONE URBANA",
                "cfu": 9
            },
            {
                "name": "SCIENZA DELLE COSTRUZIONI II E DINAMICA DELLE STRUTTURE",
                "cfu": 9
            },
            {
                "name": "TIPOLOGIE E TECNOLOGIE EDILIZIE",
                "cfu": 12
            },
            {
                "name": "COMPOSIZIONE ARCHITETTONICA E URBANA",
                "cfu": 9
            },
            {
                "name": "DIRITTO URBANISTICO E LEGISLAZIONE DELLE OO.PP.",
                "cfu": 6
            },
            {
                "name": "RECUPERO E CONSERVAZIONE DEGLI EDIFICI ",
                "cfu": 9
            },
            {
                "name": "SOSTENIBILITA' DEI PROCESSI E SISTEMI EDILIZI",
                "cfu": 6
            },
            {
                "name": "TECNICA DELLE COSTRUZIONI II E COSTRUZIONI IN ZONA SISMICA - GEOLOGIA TECNICA",
                "cfu": 12
            },
            {
                "name": "VALUTAZIONE IMMOBILIARE",
                "cfu": 6
            },
            {
                "name": "IMPIANTI DI CLIMATIZZAZIONE - PRINCIPI DI INGEGNERIA ELETTRICA",
                "cfu": 9
            },
            {
                "name": "LABORATORIO DI TESI",
                "cfu": 12
            },
            {
                "name": "PROGETTAZIONE ED INNOVAZIONE DI COMPONENTI E SISTEMI EDILIZI",
                "cfu": 6
            },
            {
                "name": "TIROCINIO FINALE + STAGE",
                "cfu": 3
            },
            {
                "name": "ESAME A SCELTA",
                "cfu": 6
            },
            {
                "name": "ESAME A SCELTA",
                "cfu": 6
            }
        ]
    },
    "2011": {
        "[PDS0-2010] - Offerta didattica": [
            {
                "name": "COMPOSIZIONE ARCHITETTONICA E URBANA",
                "cfu": 9
            },
            {
                "name": "SCIENZA DELLE COSTRUZIONI II E DINAMICA DELLE STRUTTURE",
                "cfu": 9
            },
            {
                "name": "TIPOLOGIE E TECNOLOGIE EDILIZIE",
                "cfu": 12
            },
            {
                "name": "DIRITTO URBANISTICO E LEGISLAZIONE DELLE OO.PP.",
                "cfu": 6
            },
            {
                "name": "PROGETTAZIONE E TRASFORMAZIONE URBANA",
                "cfu": 9
            },
            {
                "name": "RECUPERO E CONSERVAZIONE DEGLI EDIFICI ",
                "cfu": 9
            },
            {
                "name": "SOSTENIBILITA' DEI PROCESSI E SISTEMI EDILIZI",
                "cfu": 6
            },
            {
                "name": "TECNICA DELLE COSTRUZIONI II E COSTRUZIONI IN ZONA SISMICA - GEOLOGIA TECNICA",
                "cfu": 12
            },
            {
                "name": "VALUTAZIONE IMMOBILIARE",
                "cfu": 6
            },
            {
                "name": "IMPIANTI DI CLIMATIZZAZIONE - PRINCIPI DI INGEGNERIA ELETTRICA",
                "cfu": 9
            },
            {
                "name": "LABORATORIO DI TESI",
                "cfu": 12
            },
            {
                "name": "PROGETTAZIONE ED INNOVAZIONE DI COMPONENTI E SISTEMI EDILIZI",
                "cfu": 6
            },
            {
                "name": "TIROCINIO",
                "cfu": 3
            },
            {
                "name": "ESAME A SCELTA",
                "cfu": 6
            },
            {
                "name": "ESAME A SCELTA",
                "cfu": 6
            }
        ]
    },
    "2012": {
        "[PDS0-2010] - Offerta didattica": [
            {
                "name": "COMPOSIZIONE ARCHITETTONICA E URBANA",
                "cfu": 9
            },
            {
                "name": "SCIENZA DELLE COSTRUZIONI II E DINAMICA DELLE STRUTTURE",
                "cfu": 9
            },
            {
                "name": "TIPOLOGIE E TECNOLOGIE EDILIZIE",
                "cfu": 12
            },
            {
                "name": "DIRITTO URBANISTICO E LEGISLAZIONE DELLE OO.PP.",
                "cfu": 6
            },
            {
                "name": "PROGETTAZIONE E TRASFORMAZIONE URBANA",
                "cfu": 9
            },
            {
                "name": "RECUPERO E CONSERVAZIONE DEGLI EDIFICI ",
                "cfu": 9
            },
            {
                "name": "SOSTENIBILITA' DEI PROCESSI E SISTEMI EDILIZI",
                "cfu": 6
            },
            {
                "name": "TECNICA DELLE COSTRUZIONI II E COSTRUZIONI IN ZONA SISMICA - GEOLOGIA TECNICA",
                "cfu": 12
            },
            {
                "name": "VALUTAZIONE IMMOBILIARE",
                "cfu": 6
            },
            {
                "name": "IMPIANTI DI CLIMATIZZAZIONE - PRINCIPI DI INGEGNERIA ELETTRICA",
                "cfu": 9
            },
            {
                "name": "LABORATORIO DI TESI",
                "cfu": 12
            },
            {
                "name": "PROGETTAZIONE ED INNOVAZIONE DI COMPONENTI E SISTEMI EDILIZI",
                "cfu": 6
            },
            {
                "name": "TIROCINIO",
                "cfu": 3
            },
            {
                "name": "ESAME A SCELTA",
                "cfu": 6
            },
            {
                "name": "ESAME A SCELTA",
                "cfu": 6
            }
        ]
    },
    "2013": {
        "[PDS0-2013] - Offerta didattica": [
            {
                "name": "COMPOSIZIONE ARCHITETTONICA E URBANA",
                "cfu": 12
            },
            {
                "name": "SOSTENIBILITA' DEI PROCESSI E SISTEMI EDILIZI + MANAGEMENT  DEL PROGETTO E DELLA COSTRUZIONE",
                "cfu": 12
            },
            {
                "name": "VALUTAZIONE IMMOBILIARE",
                "cfu": 6
            },
            {
                "name": "RECUPERO DEGLI EDIFICI STORICI + MANUTENZIONE E CONSERVAZIONE DEL PATRIMONIO EDILIZIO ESISTENTE",
                "cfu": 12
            },
            {
                "name": "SCIENZA DELLE COSTRUZIONI II",
                "cfu": 6
            },
            {
                "name": "STORIA DELL'ARCHITETTURA E DELLA CITTA'",
                "cfu": 12
            },
            {
                "name": "COSTRUZIONI IN ZONA SISMICA",
                "cfu": 12
            },
            {
                "name": "PIANIFICAZIONE E TRASFORMAZIONE URBANA",
                "cfu": 12
            },
            {
                "name": "SERVIZI TECNOLOGICI E DA FONTI RINNOVABILI",
                "cfu": 12
            },
            {
                "name": "TIROCINIO + PROVA FINALE",
                "cfu": 12
            },
            {
                "name": "ESAME A SCELTA",
                "cfu": 6
            },
            {
                "name": "ESAME A SCELTA",
                "cfu": 6
            }
        ]
    },
    "2014": {
        "[PDS0-2013] - Offerta didattica": [
            {
                "name": "COMPOSIZIONE ARCHITETTONICA E URBANA",
                "cfu": 12
            },
            {
                "name": "SOSTENIBILITA' DEI PROCESSI E SISTEMI EDILIZI + MANAGEMENT  DEL PROGETTO E DELLA COSTRUZIONE",
                "cfu": 12
            },
            {
                "name": "VALUTAZIONE IMMOBILIARE",
                "cfu": 6
            },
            {
                "name": "RECUPERO DEGLI EDIFICI STORICI + MANUTENZIONE E CONSERVAZIONE DEL PATRIMONIO EDILIZIO ESISTENTE",
                "cfu": 12
            },
            {
                "name": "SCIENZA DELLE COSTRUZIONI II",
                "cfu": 6
            },
            {
                "name": "STORIA DELL'ARCHITETTURA E DELLA CITTA'",
                "cfu": 12
            },
            {
                "name": "COSTRUZIONI IN ZONA SISMICA",
                "cfu": 12
            },
            {
                "name": "SERVIZI TECNOLOGICI E DA FONTI RINNOVABILI",
                "cfu": 12
            },
            {
                "name": "PIANIFICAZIONE E TRASFORMAZIONE URBANA",
                "cfu": 12
            },
            {
                "name": "TIROCINIO + PROVA FINALE",
                "cfu": 12
            },
            {
                "name": "ESAME A SCELTA",
                "cfu": 6
            },
            {
                "name": "ESAME A SCELTA",
                "cfu": 6
            }
        ]
    },
    "2015": {
        "[PDS0-2013] - Offerta didattica": [
            {
                "name": "COMPOSIZIONE ARCHITETTONICA E URBANA",
                "cfu": 12
            },
            {
                "name": "SOSTENIBILITA' DEI PROCESSI E SISTEMI EDILIZI + MANAGEMENT  DEL PROGETTO E DELLA COSTRUZIONE",
                "cfu": 12
            },
            {
                "name": "VALUTAZIONE IMMOBILIARE",
                "cfu": 6
            },
            {
                "name": "RECUPERO DEGLI EDIFICI STORICI + MANUTENZIONE E CONSERVAZIONE DEL PATRIMONIO EDILIZIO ESISTENTE",
                "cfu": 12
            },
            {
                "name": "SCIENZA DELLE COSTRUZIONI II",
                "cfu": 6
            },
            {
                "name": "STORIA DELL'ARCHITETTURA E DELLA CITTA'",
                "cfu": 12
            },
            {
                "name": "COSTRUZIONI IN ZONA SISMICA",
                "cfu": 12
            },
            {
                "name": "SERVIZI TECNOLOGICI E DA FONTI RINNOVABILI",
                "cfu": 12
            },
            {
                "name": "PIANIFICAZIONE E TRASFORMAZIONE URBANA",
                "cfu": 12
            },
            {
                "name": "PROVA FINALE",
                "cfu": 9
            },
            {
                "name": "TIROCINIO",
                "cfu": 3
            },
            {
                "name": "ESAME A SCELTA",
                "cfu": 6
            },
            {
                "name": "ESAME A SCELTA",
                "cfu": 6
            }
        ]
    },
    "2016": {
        "[PDS0-2013] - Offerta didattica": [
            {
                "name": "COMPOSIZIONE ARCHITETTONICA E URBANA",
                "cfu": 12
            },
            {
                "name": "SOSTENIBILITA' DEI PROCESSI E SISTEMI EDILIZI + MANAGEMENT  DEL PROGETTO E DELLA COSTRUZIONE",
                "cfu": 12
            },
            {
                "name": "VALUTAZIONE IMMOBILIARE",
                "cfu": 6
            },
            {
                "name": "RECUPERO DEGLI EDIFICI STORICI + MANUTENZIONE E CONSERVAZIONE DEL PATRIMONIO EDILIZIO ESISTENTE",
                "cfu": 12
            },
            {
                "name": "SCIENZA DELLE COSTRUZIONI II",
                "cfu": 6
            },
            {
                "name": "STORIA DELL'ARCHITETTURA E DELLA CITTA'",
                "cfu": 12
            },
            {
                "name": "COSTRUZIONI IN ZONA SISMICA",
                "cfu": 12
            },
            {
                "name": "SERVIZI TECNOLOGICI E DA FONTI RINNOVABILI",
                "cfu": 12
            },
            {
                "name": "PIANIFICAZIONE E TRASFORMAZIONE URBANA",
                "cfu": 12
            },
            {
                "name": "PROVA FINALE",
                "cfu": 9
            },
            {
                "name": "TIROCINIO",
                "cfu": 3
            },
            {
                "name": "ESAME A SCELTA",
                "cfu": 6
            },
            {
                "name": "ESAME A SCELTA",
                "cfu": 6
            }
        ]
    },
    "2017": {}
}