{
    "2010": {},
    "2011": {
        "[LM04-02] - ELETTRONICA PER L'INDUSTRIA E L'AMBIENTE - TARANTO": [
            {
                "name": "FONDAMENTI DI TECNOLOGIE ELETTRONICHE",
                "cfu": 6
            },
            {
                "name": "RETI DI TELECOMUNICAZIONE PER IL CONTROLLO AMBIENTALE",
                "cfu": 6
            },
            {
                "name": "DISPOSITIVI ELETTRONICI AVANZATI",
                "cfu": 6
            },
            {
                "name": "PROGETTAZIONE DI SISTEMI ELETTRONICI INTEGRATI",
                "cfu": 6
            },
            {
                "name": "SISTEMI DI MISURA PER L'AMBIENTE",
                "cfu": 12
            },
            {
                "name": "SISTEMI ELETTRONICI PER I SENSORI",
                "cfu": 12
            },
            {
                "name": "ABILITA' DI OPTOELETTRONICA",
                "cfu": 3
            },
            {
                "name": "CONTROLLO SULLO STATO DI SISTEMI DINAMICI",
                "cfu": 6
            },
            {
                "name": "PROVA FINALE",
                "cfu": 12
            },
            {
                "name": "SENSORI E TRASDUTTORI ",
                "cfu": 6
            },
            {
                "name": "SISTEMI A MICROONDE E OTTICI",
                "cfu": 12
            },
            {
                "name": "SISTEMI NANOMETRICI PER L'ELETTRONICA E L'OPTOELETTRONICA",
                "cfu": 9
            },
            {
                "name": "TECNICHE DI A.I. NEI SISTEMI INFORMATIVI SPECIALI",
                "cfu": 12
            },
            {
                "name": "ESAME A SCELTA",
                "cfu": 6
            },
            {
                "name": "ESAME A SCELTA",
                "cfu": 6
            }
        ]
    },
    "2012": {
        "[LM04-02] - ELETTRONICA PER L'INDUSTRIA E L'AMBIENTE - TARANTO": [
            {
                "name": "RETI DI TELECOMUNICAZIONE PER IL CONTROLLO AMBIENTALE",
                "cfu": 6
            },
            {
                "name": "SISTEMI DI MISURA PER L'AMBIENTE",
                "cfu": 12
            },
            {
                "name": "DISPOSITIVI ELETTRONICI AVANZATI",
                "cfu": 6
            },
            {
                "name": "FONDAMENTI DI TECNOLOGIE ELETTRONICHE",
                "cfu": 6
            },
            {
                "name": "PROGETTAZIONE DI SISTEMI ELETTRONICI INTEGRATI",
                "cfu": 6
            },
            {
                "name": "SISTEMI ELETTRONICI PER I SENSORI",
                "cfu": 12
            },
            {
                "name": "SENSORI E TRASDUTTORI ",
                "cfu": 6
            },
            {
                "name": "SISTEMI NANOMETRICI PER L'ELETTRONICA E L'OPTOELETTRONICA",
                "cfu": 9
            },
            {
                "name": "ABILITA' DI OPTOELETTRONICA",
                "cfu": 3
            },
            {
                "name": "CONTROLLO SULLO STATO DI SISTEMI DINAMICI",
                "cfu": 6
            },
            {
                "name": "PROVA FINALE",
                "cfu": 12
            },
            {
                "name": "SISTEMI A MICROONDE E OTTICI",
                "cfu": 12
            },
            {
                "name": "TECNICHE DI A.I. NEI SISTEMI INFORMATIVI SPECIALI",
                "cfu": 12
            },
            {
                "name": "ESAME A SCELTA",
                "cfu": 6
            },
            {
                "name": "ESAME A SCELTA",
                "cfu": 6
            }
        ]
    },
    "2013": {
        "[LM04-20] - SISTEMI ELETTRONICI": [
            {
                "name": "ELETTRONICA PER SENSORI E TRASDUTTORI",
                "cfu": 6
            },
            {
                "name": "SISTEMI ELETTRONICI DIGITALI",
                "cfu": 6
            },
            {
                "name": "COMPLEMENTI DI ELETTRONICA ANALOGICA",
                "cfu": 6
            },
            {
                "name": "DISPOSITIVI ELETTRONICI AVANZATI",
                "cfu": 6
            },
            {
                "name": "PROGETTAZIONE DEI SISTEMI ELETTRONICI INTEGRATI",
                "cfu": 6
            },
            {
                "name": "SISTEMI SATELLITARI PER IL TELERILEVAMENTO E LA LOCALIZZAZIONE",
                "cfu": 6
            },
            {
                "name": "ELABORAZIONE NUMERICA DEI SEGNALI",
                "cfu": 12
            },
            {
                "name": "SISTEMI RADIANTI E COMPATIBILITA' ELETTROMAGNETICA",
                "cfu": 12
            },
            {
                "name": "PROGETTAZIONE DI SISTEMI ELETTRONICI AD ALTA FREQUENZA",
                "cfu": 6
            },
            {
                "name": "PROVA FINALE",
                "cfu": 15
            },
            {
                "name": "SISTEMI DI MISURA E CERTIFICAZIONE",
                "cfu": 12
            },
            {
                "name": "SISTEMI MICRO E NANOELETTRONICI E OPTOELETTRONICI",
                "cfu": 12
            },
            {
                "name": "TIROCINIO",
                "cfu": 3
            },
            {
                "name": "ESAME A SCELTA",
                "cfu": 6
            },
            {
                "name": "ESAME A SCELTA",
                "cfu": 6
            }
        ],
        "[LM04-21] - SISTEMI ELETTRONICI PER LE BIOTECNOLOGIE": [
            {
                "name": "ELETTRONICA PER SENSORI E TRASDUTTORI",
                "cfu": 6
            },
            {
                "name": "PROPAGAZIONE GUIDATA",
                "cfu": 6
            },
            {
                "name": "SISTEMI ELETTRONICI DIGITALI",
                "cfu": 6
            },
            {
                "name": "COMPLEMENTI DI ELETTRONICA ANALOGICA",
                "cfu": 6
            },
            {
                "name": "DISPOSITIVI ELETTRONICI AVANZATI",
                "cfu": 6
            },
            {
                "name": "INFORMATICA MEDICA",
                "cfu": 6
            },
            {
                "name": "BIOCOMPATIBILITA'  ELETTROMAGNETICA ",
                "cfu": 12
            },
            {
                "name": "ELABORAZIONE NUMERICA DEI SEGNALI",
                "cfu": 12
            },
            {
                "name": "BIOSENSORI",
                "cfu": 12
            },
            {
                "name": "PROVA FINALE",
                "cfu": 15
            },
            {
                "name": "SISTEMI MICRO E NANOELETTRONICI E OPTOELETTRONICI",
                "cfu": 12
            },
            {
                "name": "DISPOSITIVI E SENSORI FOTONICI",
                "cfu": 6
            },
            {
                "name": "TIROCINIO",
                "cfu": 3
            },
            {
                "name": "ESAME A SCELTA",
                "cfu": 6
            },
            {
                "name": "ESAME A SCELTA",
                "cfu": 6
            }
        ]
    },
    "2014": {
        "[LM04-20] - SISTEMI ELETTRONICI": [
            {
                "name": "ELETTRONICA PER SENSORI E TRASDUTTORI",
                "cfu": 6
            },
            {
                "name": "SISTEMI ELETTRONICI DIGITALI",
                "cfu": 6
            },
            {
                "name": "COMPLEMENTI DI ELETTRONICA ANALOGICA",
                "cfu": 6
            },
            {
                "name": "DISPOSITIVI ELETTRONICI AVANZATI",
                "cfu": 6
            },
            {
                "name": "PROGETTAZIONE DI SISTEMI ELETTRONICI INTEGRATI",
                "cfu": 6
            },
            {
                "name": "SISTEMI SATELLITARI PER IL TELERILEVAMENTO E LA LOCALIZZAZIONE",
                "cfu": 6
            },
            {
                "name": "ELABORAZIONE NUMERICA DEI SEGNALI",
                "cfu": 12
            },
            {
                "name": "SISTEMI RADIANTI E COMPATIBILITA' ELETTROMAGNETICA",
                "cfu": 12
            },
            {
                "name": "PROGETTAZIONE DI SISTEMI ELETTRONICI AD ALTA FREQUENZA",
                "cfu": 6
            },
            {
                "name": "PROVA FINALE",
                "cfu": 15
            },
            {
                "name": "SISTEMI DI MISURA E CERTIFICAZIONE",
                "cfu": 12
            },
            {
                "name": "SISTEMI MICRO E NANOELETTRONICI E OPTOELETTRONICI",
                "cfu": 12
            },
            {
                "name": "TIROCINIO",
                "cfu": 3
            },
            {
                "name": "ESAME A SCELTA",
                "cfu": 6
            },
            {
                "name": "ESAME A SCELTA",
                "cfu": 6
            }
        ],
        "[LM04-21] - SISTEMI ELETTRONICI PER LE BIOTECNOLOGIE": [
            {
                "name": "ELETTRONICA PER SENSORI E TRASDUTTORI",
                "cfu": 6
            },
            {
                "name": "PROPAGAZIONE GUIDATA",
                "cfu": 6
            },
            {
                "name": "SISTEMI ELETTRONICI DIGITALI",
                "cfu": 6
            },
            {
                "name": "COMPLEMENTI DI ELETTRONICA ANALOGICA",
                "cfu": 6
            },
            {
                "name": "DISPOSITIVI ELETTRONICI AVANZATI",
                "cfu": 6
            },
            {
                "name": "INFORMATICA MEDICA",
                "cfu": 6
            },
            {
                "name": "BIOCOMPATIBILITA'  ELETTROMAGNETICA ",
                "cfu": 12
            },
            {
                "name": "ELABORAZIONE NUMERICA DEI SEGNALI",
                "cfu": 12
            },
            {
                "name": "DISPOSITIVI E SENSORI FOTONICI",
                "cfu": 6
            },
            {
                "name": "BIOSENSORI",
                "cfu": 12
            },
            {
                "name": "PROVA FINALE",
                "cfu": 15
            },
            {
                "name": "SISTEMI MICRO E NANOELETTRONICI E OPTOELETTRONICI",
                "cfu": 12
            },
            {
                "name": "TIROCINIO",
                "cfu": 3
            },
            {
                "name": "ESAME A SCELTA",
                "cfu": 6
            },
            {
                "name": "ESAME A SCELTA",
                "cfu": 6
            }
        ]
    },
    "2015": {
        "[LM04-20] - SISTEMI ELETTRONICI": [
            {
                "name": "ELETTRONICA PER SENSORI E TRASDUTTORI",
                "cfu": 6
            },
            {
                "name": "SISTEMI ELETTRONICI DIGITALI",
                "cfu": 6
            },
            {
                "name": "SISTEMI SATELLITARI PER IL TELERILEVAMENTO E LA LOCALIZZAZIONE",
                "cfu": 6
            },
            {
                "name": "COMPLEMENTI DI ELETTRONICA ANALOGICA",
                "cfu": 6
            },
            {
                "name": "DISPOSITIVI ELETTRONICI AVANZATI",
                "cfu": 6
            },
            {
                "name": "LABORATORIO DI SISTEMI ELETTRONICI DIGITALI",
                "cfu": 3
            },
            {
                "name": "PROGETTAZIONE DEI SISTEMI ELETTRONICI INTEGRATI",
                "cfu": 6
            },
            {
                "name": "ELABORAZIONE NUMERICA DEI SEGNALI",
                "cfu": 12
            },
            {
                "name": "SISTEMI RADIANTI E COMPATIBILITA' ELETTROMAGNETICA",
                "cfu": 12
            },
            {
                "name": "PROGETTAZIONE DI SISTEMI ELETTRONICI AD ALTA FREQUENZA",
                "cfu": 6
            },
            {
                "name": "PROVA FINALE",
                "cfu": 12
            },
            {
                "name": "SISTEMI DI MISURA E CERTIFICAZIONE",
                "cfu": 12
            },
            {
                "name": "SISTEMI MICRO E NANOELETTRONICI E OPTOELETTRONICI",
                "cfu": 12
            },
            {
                "name": "TIROCINIO",
                "cfu": 3
            },
            {
                "name": "ESAME A SCELTA",
                "cfu": 6
            },
            {
                "name": "ESAME A SCELTA",
                "cfu": 6
            }
        ],
        "[LM04-21] - SISTEMI ELETTRONICI PER LE BIOTECNOLOGIE": [
            {
                "name": "ELETTRONICA PER SENSORI E TRASDUTTORI",
                "cfu": 6
            },
            {
                "name": "FIBER OPTIC PROPAGATION",
                "cfu": 6
            },
            {
                "name": "SISTEMI ELETTRONICI DIGITALI",
                "cfu": 6
            },
            {
                "name": "COMPLEMENTI DI ELETTRONICA ANALOGICA",
                "cfu": 6
            },
            {
                "name": "DISPOSITIVI ELETTRONICI AVANZATI",
                "cfu": 6
            },
            {
                "name": "INFORMATICA MEDICA",
                "cfu": 6
            },
            {
                "name": "LABORATORIO DI SISTEMI ELETTRONICI DIGITALI",
                "cfu": 3
            },
            {
                "name": "BIOCOMPATIBILITA'  ELETTROMAGNETICA ",
                "cfu": 12
            },
            {
                "name": "ELABORAZIONE NUMERICA DEI SEGNALI",
                "cfu": 12
            },
            {
                "name": "DISPOSITIVI E SENSORI FOTONICI",
                "cfu": 6
            },
            {
                "name": "BIOSENSORI",
                "cfu": 12
            },
            {
                "name": "PROVA FINALE",
                "cfu": 12
            },
            {
                "name": "SISTEMI MICRO E NANOELETTRONICI E OPTOELETTRONICI",
                "cfu": 12
            },
            {
                "name": "TIROCINIO",
                "cfu": 3
            },
            {
                "name": "ESAME A SCELTA",
                "cfu": 6
            },
            {
                "name": "ESAME A SCELTA",
                "cfu": 6
            }
        ]
    },
    "2016": {
        "[PDS0-2016] - Offerta didattica": [
            {
                "name": "ELETTRONICA PER SENSORI E TRASDUTTORI",
                "cfu": 6
            },
            {
                "name": "SISTEMI ELETTRONICI DIGITALI",
                "cfu": 6
            },
            {
                "name": "COMPLEMENTI DI ELETTRONICA ANALOGICA",
                "cfu": 6
            },
            {
                "name": "DISPOSITIVI ELETTRONICI AVANZATI",
                "cfu": 6
            },
            {
                "name": "LABORATORIO DI SISTEMI ELETTRONICI DIGITALI",
                "cfu": 3
            },
            {
                "name": "PROGETTAZIONE DEI SISTEMI ELETTRONICI INTEGRATI",
                "cfu": 6
            },
            {
                "name": "ELABORAZIONE NUMERICA DEI SEGNALI",
                "cfu": 12
            },
            {
                "name": "SISTEMI RADIANTI E COMPATIBILITA' ELETTROMAGNETICA",
                "cfu": 12
            },
            {
                "name": "DISPOSITIVI E SENSORI FOTONICI",
                "cfu": 6
            },
            {
                "name": "PROGETTAZIONE DI SISTEMI ELETTRONICI AD ALTA FREQUENZA",
                "cfu": 6
            },
            {
                "name": "PROVA FINALE",
                "cfu": 12
            },
            {
                "name": "SISTEMI MICRO E NANOELETTRONICI E OPTOELETTRONICI",
                "cfu": 12
            },
            {
                "name": "TIROCINIO",
                "cfu": 3
            },
            {
                "name": "STRUMENTAZIONE PROGRAMMABILE E SENSORI",
                "cfu": 12
            },
            {
                "name": "ESAME A SCELTA",
                "cfu": 6
            },
            {
                "name": "ESAME A SCELTA",
                "cfu": 6
            }
        ]
    },
    "2017": {
        "[PDS0-2016] - Offerta didattica": [
            {
                "name": "DISPOSITIVI E SENSORI FOTONICI",
                "cfu": 6
            },
            {
                "name": "ELETTRONICA PER SENSORI E TRASDUTTORI",
                "cfu": 6
            },
            {
                "name": "PROGETTAZIONE DI SISTEMI ELETTRONICI AD ALTA FREQUENZA",
                "cfu": 6
            },
            {
                "name": "SISTEMI ELETTRONICI DIGITALI",
                "cfu": 6
            },
            {
                "name": "COMPLEMENTI DI ELETTRONICA ANALOGICA",
                "cfu": 6
            },
            {
                "name": "DISPOSITIVI ELETTRONICI AVANZATI",
                "cfu": 6
            },
            {
                "name": "LABORATORIO DI SISTEMI ELETTRONICI DIGITALI",
                "cfu": 3
            },
            {
                "name": "PROGETTAZIONE DEI SISTEMI ELETTRONICI INTEGRATI",
                "cfu": 6
            },
            {
                "name": "TIROCINIO",
                "cfu": 3
            },
            {
                "name": "ELABORAZIONE NUMERICA DEI SEGNALI",
                "cfu": 12
            },
            {
                "name": "PROVA FINALE",
                "cfu": 12
            },
            {
                "name": "SISTEMI MICRO E NANOELETTRONICI E OPTOELETTRONICI",
                "cfu": 12
            },
            {
                "name": "SISTEMI RADIANTI E COMPATIBILITA' ELETTROMAGNETICA",
                "cfu": 12
            },
            {
                "name": "STRUMENTAZIONE PROGRAMMABILE E SENSORI",
                "cfu": 12
            },
            {
                "name": "ESAME A SCELTA",
                "cfu": 6
            },
            {
                "name": "ESAME A SCELTA",
                "cfu": 6
            }
        ]
    }
}