{
    "2010": {},
    "2011": {
        "[LM30-01] - ENERGIA": [
            {
                "name": "AZIONAMENTI A FLUIDO ",
                "cfu": 6
            },
            {
                "name": "MACCHINE A FLUIDO II E SISTEMI ENERGETICI II",
                "cfu": 12
            },
            {
                "name": "MECCANICA APPLICATA ALLE MACCHINE II",
                "cfu": 6
            },
            {
                "name": "SIMULAZIONE E PROTOTIPAZIONE VIRTUALE ",
                "cfu": 6
            },
            {
                "name": "INGLESE II ",
                "cfu": 3
            },
            {
                "name": "MACCHINE ED AZIONAMENTI ELETTRICI",
                "cfu": 6
            },
            {
                "name": "PROGETTAZIONE MECCANICA II E COSTRUZIONE DI MACCHINE",
                "cfu": 12
            },
            {
                "name": "TECNOLOGIA MECCANICA II ",
                "cfu": 9
            },
            {
                "name": "DINAMICA E CONTROLLO DELLE MACCHINE",
                "cfu": 6
            },
            {
                "name": "IMPIANTI MECCANICI II ",
                "cfu": 6
            },
            {
                "name": "MOTORI A COMBUSTIONE INTERNA",
                "cfu": 6
            },
            {
                "name": "TECNOLOGIE PER LE ENERGIE RINNOVABILI E CENTRALI TERMICHE",
                "cfu": 12
            },
            {
                "name": "PROVA FINALE",
                "cfu": 12
            },
            {
                "name": "TIROCINIO",
                "cfu": 6
            },
            {
                "name": "ESAME A SCELTA",
                "cfu": 6
            },
            {
                "name": "ESAME A SCELTA",
                "cfu": 6
            }
        ],
        "[LM30-02] - INDUSTRIALE - TARANTO": [
            {
                "name": "MACCHINE A FLUIDO II E SISTEMI ENERGETICI II",
                "cfu": 12
            },
            {
                "name": "MACCHINE ED AZIONAMENTI ELETTRICI",
                "cfu": 6
            },
            {
                "name": "MECCANICA APPLICATA ALLE MACCHINE II",
                "cfu": 6
            },
            {
                "name": "ORGANIZZAZIONE DELLA PRODUZIONE E DEI SISTEMI LOGISTICI",
                "cfu": 6
            },
            {
                "name": "INGLESE II ",
                "cfu": 3
            },
            {
                "name": "PROGETTAZIONE MECCANICA FUNZIONALE",
                "cfu": 6
            },
            {
                "name": "PROGETTAZIONE MECCANICA II E MECCANICA SPERIMENTALE",
                "cfu": 12
            },
            {
                "name": "TECNOLOGIA MECCANICA II ",
                "cfu": 9
            },
            {
                "name": "GESTIONE AZIENDALE ",
                "cfu": 6
            },
            {
                "name": "IMPIANTI MECCANICI II ",
                "cfu": 6
            },
            {
                "name": "OLEODINAMICA E PNEUMATICA",
                "cfu": 6
            },
            {
                "name": "PROVA FINALE",
                "cfu": 12
            },
            {
                "name": "SISTEMI ELETTRICI PER L'ENERGIA",
                "cfu": 12
            },
            {
                "name": "TIROCINIO",
                "cfu": 6
            },
            {
                "name": "ESAME A SCELTA",
                "cfu": 6
            },
            {
                "name": "ESAME A SCELTA",
                "cfu": 6
            }
        ],
        "[LM30-03] - COSTRUTTIVO": [
            {
                "name": "MACCHINE A FLUIDO II E SISTEMI ENERGETICI II",
                "cfu": 12
            },
            {
                "name": "MECCANICA APPLICATA ALLE MACCHINE II",
                "cfu": 6
            },
            {
                "name": "REGOLAZIONE E CONTROLLO DEGLI IMPIANTI ",
                "cfu": 6
            },
            {
                "name": "SIMULAZIONE E PROTOTIPAZIONE VIRTUALE ",
                "cfu": 6
            },
            {
                "name": "INGLESE II ",
                "cfu": 3
            },
            {
                "name": "MACCHINE ED AZIONAMENTI ELETTRICI",
                "cfu": 6
            },
            {
                "name": "PROGETTAZIONE MECCANICA II E COSTRUZIONE DI MACCHINE",
                "cfu": 12
            },
            {
                "name": "TECNOLOGIA MECCANICA II ",
                "cfu": 9
            },
            {
                "name": "IMPIANTI MECCANICI II ",
                "cfu": 6
            },
            {
                "name": "MECCANICA DEL VEICOLO",
                "cfu": 6
            },
            {
                "name": "PROGETTAZIONE ASSISTITA DI STRUTTURE MECCANICHE ",
                "cfu": 6
            },
            {
                "name": "SPERIMENTAZIONE E PROGETTAZIONE CON MATERIALI INNOVATIVI",
                "cfu": 12
            },
            {
                "name": "PROVA FINALE",
                "cfu": 12
            },
            {
                "name": "TIROCINIO",
                "cfu": 6
            },
            {
                "name": "ESAME A SCELTA",
                "cfu": 6
            },
            {
                "name": "ESAME A SCELTA",
                "cfu": 6
            }
        ],
        "[LM30-04] - TECNOLOGICO": [
            {
                "name": "MACCHINE A FLUIDO II E SISTEMI ENERGETICI II",
                "cfu": 12
            },
            {
                "name": "MECCANICA APPLICATA ALLE MACCHINE II",
                "cfu": 6
            },
            {
                "name": "PRODUZIONE ASSISTITA DAL CALCOLATORE",
                "cfu": 6
            },
            {
                "name": "SIMULAZIONE E PROTOTIPAZIONE VIRTUALE ",
                "cfu": 6
            },
            {
                "name": "INGLESE II ",
                "cfu": 3
            },
            {
                "name": "MACCHINE ED AZIONAMENTI ELETTRICI",
                "cfu": 6
            },
            {
                "name": "PROGETTAZIONE MECCANICA II E COSTRUZIONE DI MACCHINE",
                "cfu": 12
            },
            {
                "name": "TECNOLOGIA MECCANICA II ",
                "cfu": 9
            },
            {
                "name": "IMPIANTI MECCANICI II ",
                "cfu": 6
            },
            {
                "name": "QUALITA' DELLE LAVORAZIONI MECCANICHE",
                "cfu": 6
            },
            {
                "name": "SICUREZZA DEGLI IMPIANTI INDUSTRIALI ",
                "cfu": 6
            },
            {
                "name": "TECNOLOGIE SPECIALI E TECNOLOGIA DELLE GIUNZIONI",
                "cfu": 12
            },
            {
                "name": "PROVA FINALE",
                "cfu": 12
            },
            {
                "name": "TIROCINIO",
                "cfu": 6
            },
            {
                "name": "ESAME A SCELTA",
                "cfu": 6
            },
            {
                "name": "ESAME A SCELTA",
                "cfu": 6
            }
        ]
    },
    "2012": {
        "[LM30-01] - ENERGIA": [
            {
                "name": "AZIONAMENTI A FLUIDO ",
                "cfu": 6
            },
            {
                "name": "MACCHINE A FLUIDO II E SISTEMI ENERGETICI II",
                "cfu": 12
            },
            {
                "name": "MACCHINE ED AZIONAMENTI ELETTRICI",
                "cfu": 6
            },
            {
                "name": "MECCANICA APPLICATA ALLE MACCHINE II",
                "cfu": 6
            },
            {
                "name": "INGLESE II ",
                "cfu": 3
            },
            {
                "name": "PROGETTAZIONE MECCANICA II E COSTRUZIONE DI MACCHINE",
                "cfu": 12
            },
            {
                "name": "SIMULAZIONE E PROTOTIPAZIONE VIRTUALE ",
                "cfu": 6
            },
            {
                "name": "TECNOLOGIA MECCANICA II ",
                "cfu": 9
            },
            {
                "name": "IMPIANTI MECCANICI II ",
                "cfu": 6
            },
            {
                "name": "MOTORI A COMBUSTIONE INTERNA",
                "cfu": 6
            },
            {
                "name": "TECNOLOGIE PER LE ENERGIE RINNOVABILI E CENTRALI TERMICHE",
                "cfu": 12
            },
            {
                "name": "DINAMICA E CONTROLLO DELLE MACCHINE",
                "cfu": 6
            },
            {
                "name": "PROVA FINALE",
                "cfu": 12
            },
            {
                "name": "TIROCINIO",
                "cfu": 6
            },
            {
                "name": "ESAME A SCELTA",
                "cfu": 6
            },
            {
                "name": "ESAME A SCELTA",
                "cfu": 6
            }
        ],
        "[LM30-02] - INDUSTRIALE - TARANTO": [
            {
                "name": "MACCHINE A FLUIDO II E SISTEMI ENERGETICI II",
                "cfu": 12
            },
            {
                "name": "MACCHINE ED AZIONAMENTI ELETTRICI",
                "cfu": 6
            },
            {
                "name": "MECCANICA APPLICATA ALLE MACCHINE II",
                "cfu": 6
            },
            {
                "name": "PROGETTAZIONE MECCANICA FUNZIONALE",
                "cfu": 6
            },
            {
                "name": "INGLESE II ",
                "cfu": 3
            },
            {
                "name": "PROGETTAZIONE MECCANICA II E MECCANICA SPERIMENTALE",
                "cfu": 12
            },
            {
                "name": "SIMULAZIONE DEGLI IMPIANTI MOTORI ",
                "cfu": 6
            },
            {
                "name": "TECNOLOGIA MECCANICA II ",
                "cfu": 9
            },
            {
                "name": "GESTIONE AZIENDALE ",
                "cfu": 6
            },
            {
                "name": "IMPIANTI MECCANICI II ",
                "cfu": 6
            },
            {
                "name": "OLEODINAMICA E PNEUMATICA",
                "cfu": 6
            },
            {
                "name": "PROVA FINALE",
                "cfu": 12
            },
            {
                "name": "SISTEMI ELETTRICI PER L'ENERGIA",
                "cfu": 12
            },
            {
                "name": "TIROCINIO",
                "cfu": 6
            },
            {
                "name": "ESAME A SCELTA",
                "cfu": 6
            },
            {
                "name": "ESAME A SCELTA",
                "cfu": 6
            }
        ],
        "[LM30-03] - COSTRUTTIVO": [
            {
                "name": "MACCHINE A FLUIDO II E SISTEMI ENERGETICI II",
                "cfu": 12
            },
            {
                "name": "MACCHINE ED AZIONAMENTI ELETTRICI",
                "cfu": 6
            },
            {
                "name": "MECCANICA APPLICATA ALLE MACCHINE II",
                "cfu": 6
            },
            {
                "name": "REGOLAZIONE E CONTROLLO DEGLI IMPIANTI ",
                "cfu": 6
            },
            {
                "name": "INGLESE II ",
                "cfu": 3
            },
            {
                "name": "PROGETTAZIONE MECCANICA II E COSTRUZIONE DI MACCHINE",
                "cfu": 12
            },
            {
                "name": "SIMULAZIONE E PROTOTIPAZIONE VIRTUALE ",
                "cfu": 6
            },
            {
                "name": "TECNOLOGIA MECCANICA II ",
                "cfu": 9
            },
            {
                "name": "IMPIANTI MECCANICI II ",
                "cfu": 6
            },
            {
                "name": "MECCANICA DEL VEICOLO",
                "cfu": 6
            },
            {
                "name": "SPERIMENTAZIONE E PROGETTAZIONE CON MATERIALI INNOVATIVI",
                "cfu": 12
            },
            {
                "name": "PROGETTAZIONE ASSISTITA DI STRUTTURE MECCANICHE ",
                "cfu": 6
            },
            {
                "name": "PROVA FINALE",
                "cfu": 12
            },
            {
                "name": "TIROCINIO",
                "cfu": 6
            },
            {
                "name": "ESAME A SCELTA",
                "cfu": 6
            },
            {
                "name": "ESAME A SCELTA",
                "cfu": 6
            }
        ],
        "[LM30-04] - TECNOLOGICO": [
            {
                "name": "MACCHINE A FLUIDO II E SISTEMI ENERGETICI II",
                "cfu": 12
            },
            {
                "name": "MACCHINE ED AZIONAMENTI ELETTRICI",
                "cfu": 6
            },
            {
                "name": "MECCANICA APPLICATA ALLE MACCHINE II",
                "cfu": 6
            },
            {
                "name": "PRODUZIONE ASSISTITA DAL CALCOLATORE",
                "cfu": 6
            },
            {
                "name": "INGLESE II ",
                "cfu": 3
            },
            {
                "name": "PROGETTAZIONE MECCANICA II E COSTRUZIONE DI MACCHINE",
                "cfu": 12
            },
            {
                "name": "SIMULAZIONE E PROTOTIPAZIONE VIRTUALE ",
                "cfu": 6
            },
            {
                "name": "TECNOLOGIA MECCANICA II ",
                "cfu": 9
            },
            {
                "name": "IMPIANTI MECCANICI II ",
                "cfu": 6
            },
            {
                "name": "TECNOLOGIE SPECIALI E TECNOLOGIA DELLE GIUNZIONI",
                "cfu": 12
            },
            {
                "name": "PROVA FINALE",
                "cfu": 12
            },
            {
                "name": "QUALITA' DELLE LAVORAZIONI MECCANICHE",
                "cfu": 6
            },
            {
                "name": "SICUREZZA DEGLI IMPIANTI INDUSTRIALI ",
                "cfu": 6
            },
            {
                "name": "TIROCINIO",
                "cfu": 6
            },
            {
                "name": "ESAME A SCELTA",
                "cfu": 6
            },
            {
                "name": "ESAME A SCELTA",
                "cfu": 6
            }
        ]
    },
    "2013": {
        "[LM30-20] - TECNOLOGICO": [
            {
                "name": "MACCHINE A FLUIDO II E SISTEMI ENERGETICI II",
                "cfu": 12
            },
            {
                "name": "MACCHINE ED AZIONAMENTI ELETTRICI",
                "cfu": 6
            },
            {
                "name": "MECCANICA APPLICATA ALLE MACCHINE II",
                "cfu": 6
            },
            {
                "name": "PRODUZIONE ASSISTITA DAL CALCOLATORE",
                "cfu": 6
            },
            {
                "name": "INGLESE II ",
                "cfu": 3
            },
            {
                "name": "PROGETTAZIONE MECCANICA II E COSTRUZIONE DI MACCHINE",
                "cfu": 12
            },
            {
                "name": "SIMULAZIONE E PROTOTIPAZIONE VIRTUALE ",
                "cfu": 6
            },
            {
                "name": "TECNOLOGIA MECCANICA II ",
                "cfu": 9
            },
            {
                "name": "IMPIANTI MECCANICI II ",
                "cfu": 6
            },
            {
                "name": "PROVA FINALE",
                "cfu": 12
            },
            {
                "name": "QUALITA' DELLE LAVORAZIONI MECCANICHE",
                "cfu": 6
            },
            {
                "name": "SICUREZZA DEGLI IMPIANTI INDUSTRIALI ",
                "cfu": 6
            },
            {
                "name": "TECNOLOGIE SPECIALI E TECNOLOGIA DELLE GIUNZIONI",
                "cfu": 12
            },
            {
                "name": "TIROCINIO",
                "cfu": 6
            },
            {
                "name": "ESAME A SCELTA",
                "cfu": 6
            },
            {
                "name": "ESAME A SCELTA",
                "cfu": 6
            }
        ],
        "[LM30-21] - ENERGIA": [
            {
                "name": "AZIONAMENTI A FLUIDO ",
                "cfu": 6
            },
            {
                "name": "MACCHINE A FLUIDO II E SISTEMI ENERGETICI II",
                "cfu": 12
            },
            {
                "name": "MACCHINE ED AZIONAMENTI ELETTRICI",
                "cfu": 6
            },
            {
                "name": "MECCANICA APPLICATA ALLE MACCHINE II",
                "cfu": 6
            },
            {
                "name": "INGLESE II ",
                "cfu": 3
            },
            {
                "name": "PROGETTAZIONE MECCANICA II E COSTRUZIONE DI MACCHINE",
                "cfu": 12
            },
            {
                "name": "SIMULAZIONE E PROTOTIPAZIONE VIRTUALE ",
                "cfu": 6
            },
            {
                "name": "TECNOLOGIA MECCANICA II ",
                "cfu": 9
            },
            {
                "name": "DINAMICA E CONTROLLO DELLE MACCHINE",
                "cfu": 6
            },
            {
                "name": "IMPIANTI MECCANICI II ",
                "cfu": 6
            },
            {
                "name": "MOTORI A COMBUSTIONE INTERNA",
                "cfu": 6
            },
            {
                "name": "PROVA FINALE",
                "cfu": 12
            },
            {
                "name": "TECNOLOGIE PER LE ENERGIE RINNOVABILI E CENTRALI TERMICHE",
                "cfu": 12
            },
            {
                "name": "TIROCINIO",
                "cfu": 6
            },
            {
                "name": "ESAME A SCELTA",
                "cfu": 6
            },
            {
                "name": "ESAME A SCELTA",
                "cfu": 6
            }
        ],
        "[LM30-22] - COSTRUTTIVO": [
            {
                "name": "MACCHINE A FLUIDO II E SISTEMI ENERGETICI II",
                "cfu": 12
            },
            {
                "name": "MACCHINE ED AZIONAMENTI ELETTRICI",
                "cfu": 6
            },
            {
                "name": "MECCANICA APPLICATA ALLE MACCHINE II",
                "cfu": 6
            },
            {
                "name": "REGOLAZIONE E CONTROLLO DEGLI IMPIANTI ",
                "cfu": 6
            },
            {
                "name": "INGLESE II ",
                "cfu": 3
            },
            {
                "name": "PROGETTAZIONE MECCANICA II E COSTRUZIONE DI MACCHINE",
                "cfu": 12
            },
            {
                "name": "SIMULAZIONE E PROTOTIPAZIONE VIRTUALE ",
                "cfu": 6
            },
            {
                "name": "TECNOLOGIA MECCANICA II ",
                "cfu": 9
            },
            {
                "name": "IMPIANTI MECCANICI II ",
                "cfu": 6
            },
            {
                "name": "MISURE MECCANICHE E TERMICHE II",
                "cfu": 6
            },
            {
                "name": "PROVA FINALE",
                "cfu": 12
            },
            {
                "name": "TIROCINIO",
                "cfu": 6
            },
            {
                "name": "MECCANICA DEL VEICOLO E PROGETTAZIONE ASSISTITA DI STRUTTURE MECCANICHE",
                "cfu": 12
            },
            {
                "name": "MECCANICA SPERIMENTALE",
                "cfu": 6
            },
            {
                "name": "ESAME A SCELTA",
                "cfu": 6
            },
            {
                "name": "ESAME A SCELTA",
                "cfu": 6
            }
        ],
        "[LM30-23_TA] - INDUSTRIALE": [
            {
                "name": "MACCHINE A FLUIDO II E SISTEMI ENERGETICI II",
                "cfu": 12
            },
            {
                "name": "MECCANICA APPLICATA ALLE MACCHINE II",
                "cfu": 6
            },
            {
                "name": "MISURE MECCANICHE E TERMICHE II",
                "cfu": 6
            },
            {
                "name": "PROGETTAZIONE MECCANICA FUNZIONALE",
                "cfu": 6
            },
            {
                "name": "INGLESE II ",
                "cfu": 3
            },
            {
                "name": "PROGETTAZIONE MECCANICA II E MECCANICA SPERIMENTALE",
                "cfu": 12
            },
            {
                "name": "SIMULAZIONE E PROTOTIPAZIONE VIRTUALE ",
                "cfu": 6
            },
            {
                "name": "TECNOLOGIA MECCANICA II ",
                "cfu": 9
            },
            {
                "name": "GESTIONE AZIENDALE ",
                "cfu": 6
            },
            {
                "name": "IMPIANTI MECCANICI II ",
                "cfu": 6
            },
            {
                "name": "OLEODINAMICA E PNEUMATICA",
                "cfu": 12
            },
            {
                "name": "PROVA FINALE",
                "cfu": 12
            },
            {
                "name": "SISTEMI ELETTRICI PER L'ENERGIA",
                "cfu": 6
            },
            {
                "name": "TIROCINIO",
                "cfu": 6
            },
            {
                "name": "ESAME A SCELTA",
                "cfu": 6
            },
            {
                "name": "ESAME A SCELTA",
                "cfu": 6
            }
        ],
        "[LM30-24] - AERONAUTICO": [
            {
                "name": "FLUIDODINAMICA DELLE MACCHINE",
                "cfu": 6
            },
            {
                "name": "GASDINAMICA E PROPULSIONE",
                "cfu": 6
            },
            {
                "name": "MACCHINE A FLUIDO II E SISTEMI ENERGETICI II",
                "cfu": 12
            },
            {
                "name": "MECCANICA APPLICATA ALLE MACCHINE II",
                "cfu": 6
            },
            {
                "name": "DINAMICA E SIMULAZIONE DI AEROMOBILI",
                "cfu": 6
            },
            {
                "name": "INGLESE II ",
                "cfu": 3
            },
            {
                "name": "PROGETTAZIONE MECCANICA II E COSTRUZIONE DI MACCHINE",
                "cfu": 12
            },
            {
                "name": "TECNOLOGIA MECCANICA II ",
                "cfu": 9
            },
            {
                "name": "DIAGNOSTICA STRUTTURALE",
                "cfu": 6
            },
            {
                "name": "IMPIANTI MECCANICI II ",
                "cfu": 6
            },
            {
                "name": "PROVA FINALE",
                "cfu": 12
            },
            {
                "name": "TIROCINIO",
                "cfu": 6
            },
            {
                "name": "LAVORAZIONI DI MATERIALI  AERONAUTICI",
                "cfu": 6
            },
            {
                "name": "PROGETTAZIONE CON MATERIALI INNOVATIVI E PROGETTAZIONE ASSISTITA DI AEROMOBILI",
                "cfu": 12
            },
            {
                "name": "ESAME A SCELTA",
                "cfu": 6
            },
            {
                "name": "ESAME A SCELTA",
                "cfu": 6
            }
        ],
        "[LM30-25] - SISTEMI DINAMICI": [
            {
                "name": "MACCHINE A FLUIDO II E SISTEMI ENERGETICI II",
                "cfu": 12
            },
            {
                "name": "MACCHINE ED AZIONAMENTI ELETTRICI",
                "cfu": 6
            },
            {
                "name": "MECCANICA APPLICATA ALLE MACCHINE II",
                "cfu": 6
            },
            {
                "name": "ANALYTICAL DYNAMICS",
                "cfu": 9
            },
            {
                "name": "INGLESE II ",
                "cfu": 3
            },
            {
                "name": "OPTIMIZATION METHODS",
                "cfu": 6
            },
            {
                "name": "SIMULAZIONE E PROTOTIPAZIONE VIRTUALE ",
                "cfu": 6
            },
            {
                "name": "VIBRATING MECHANICAL SYSTEMS",
                "cfu": 6
            },
            {
                "name": "PROVA FINALE",
                "cfu": 12
            },
            {
                "name": "TIROCINIO",
                "cfu": 6
            },
            {
                "name": "DYNAMICS SYSTEMS AND CONTROL ",
                "cfu": 9
            },
            {
                "name": "INTRODUCTION TO SOLID MECHANICS",
                "cfu": 9
            },
            {
                "name": "LINEAR CONTROL THEORY",
                "cfu": 9
            },
            {
                "name": "TRANSPORT PHENOMENA",
                "cfu": 9
            },
            {
                "name": "ESAME A SCELTA",
                "cfu": 6
            },
            {
                "name": "ESAME A SCELTA",
                "cfu": 6
            }
        ]
    },
    "2014": {
        "[LM30-20] - TECNOLOGICO": [
            {
                "name": "MACCHINE A FLUIDO II E SISTEMI ENERGETICI II",
                "cfu": 12
            },
            {
                "name": "MACCHINE ED AZIONAMENTI ELETTRICI",
                "cfu": 6
            },
            {
                "name": "MECCANICA APPLICATA ALLE MACCHINE II",
                "cfu": 6
            },
            {
                "name": "PRODUZIONE ASSISTITA DAL CALCOLATORE",
                "cfu": 6
            },
            {
                "name": "INGLESE II ",
                "cfu": 3
            },
            {
                "name": "PROGETTAZIONE MECCANICA II E COSTRUZIONE DI MACCHINE",
                "cfu": 12
            },
            {
                "name": "SIMULAZIONE E PROTOTIPAZIONE VIRTUALE ",
                "cfu": 6
            },
            {
                "name": "TECNOLOGIA MECCANICA II ",
                "cfu": 9
            },
            {
                "name": "IMPIANTI MECCANICI II ",
                "cfu": 6
            },
            {
                "name": "TECNOLOGIE SPECIALI E TECNOLOGIA DELLE GIUNZIONI",
                "cfu": 12
            },
            {
                "name": "PROVA FINALE",
                "cfu": 12
            },
            {
                "name": "QUALITA' DELLE LAVORAZIONI MECCANICHE",
                "cfu": 6
            },
            {
                "name": "SICUREZZA DEGLI IMPIANTI INDUSTRIALI ",
                "cfu": 6
            },
            {
                "name": "TIROCINIO",
                "cfu": 6
            },
            {
                "name": "ESAME A SCELTA",
                "cfu": 6
            },
            {
                "name": "ESAME A SCELTA",
                "cfu": 6
            }
        ],
        "[LM30-21] - ENERGIA": [
            {
                "name": "AZIONAMENTI A FLUIDO ",
                "cfu": 6
            },
            {
                "name": "MACCHINE A FLUIDO II E SISTEMI ENERGETICI II",
                "cfu": 12
            },
            {
                "name": "MACCHINE ED AZIONAMENTI ELETTRICI",
                "cfu": 6
            },
            {
                "name": "MECCANICA APPLICATA ALLE MACCHINE II",
                "cfu": 6
            },
            {
                "name": "INGLESE II ",
                "cfu": 3
            },
            {
                "name": "PROGETTAZIONE MECCANICA II E COSTRUZIONE DI MACCHINE",
                "cfu": 12
            },
            {
                "name": "SIMULAZIONE E PROTOTIPAZIONE VIRTUALE ",
                "cfu": 6
            },
            {
                "name": "TECNOLOGIA MECCANICA II ",
                "cfu": 9
            },
            {
                "name": "DINAMICA E CONTROLLO DELLE MACCHINE",
                "cfu": 6
            },
            {
                "name": "IMPIANTI MECCANICI II ",
                "cfu": 6
            },
            {
                "name": "MOTORI A COMBUSTIONE INTERNA",
                "cfu": 6
            },
            {
                "name": "PROVA FINALE",
                "cfu": 12
            },
            {
                "name": "TECNOLOGIE PER LE ENERGIE RINNOVABILI E CENTRALI TERMICHE",
                "cfu": 12
            },
            {
                "name": "TIROCINIO",
                "cfu": 6
            },
            {
                "name": "ESAME A SCELTA",
                "cfu": 6
            },
            {
                "name": "ESAME A SCELTA",
                "cfu": 6
            }
        ],
        "[LM30-22] - COSTRUTTIVO": [
            {
                "name": "MACCHINE A FLUIDO II E SISTEMI ENERGETICI II",
                "cfu": 12
            },
            {
                "name": "MACCHINE ED AZIONAMENTI ELETTRICI",
                "cfu": 6
            },
            {
                "name": "MECCANICA APPLICATA ALLE MACCHINE II",
                "cfu": 6
            },
            {
                "name": "REGOLAZIONE E CONTROLLO DEGLI IMPIANTI ",
                "cfu": 6
            },
            {
                "name": "INGLESE II ",
                "cfu": 3
            },
            {
                "name": "PROGETTAZIONE MECCANICA II E COSTRUZIONE DI MACCHINE",
                "cfu": 12
            },
            {
                "name": "SIMULAZIONE E PROTOTIPAZIONE VIRTUALE ",
                "cfu": 6
            },
            {
                "name": "TECNOLOGIA MECCANICA II ",
                "cfu": 9
            },
            {
                "name": "IMPIANTI MECCANICI II ",
                "cfu": 6
            },
            {
                "name": "MECCANICA DEL VEICOLO E PROGETTAZIONE ASSISTITA DI STRUTTURE MECCANICHE",
                "cfu": 12
            },
            {
                "name": "MECCANICA SPERIMENTALE",
                "cfu": 6
            },
            {
                "name": "PROVA FINALE",
                "cfu": 12
            },
            {
                "name": "TIROCINIO",
                "cfu": 6
            },
            {
                "name": "DIAGNOSTICA STRUTTURALE",
                "cfu": 6
            },
            {
                "name": "ESAME A SCELTA",
                "cfu": 6
            },
            {
                "name": "ESAME A SCELTA",
                "cfu": 6
            }
        ],
        "[LM30-23_TA] - INDUSTRIALE": [
            {
                "name": "MACCHINE A FLUIDO II E SISTEMI ENERGETICI II",
                "cfu": 12
            },
            {
                "name": "MECCANICA APPLICATA ALLE MACCHINE II",
                "cfu": 6
            },
            {
                "name": "MISURE MECCANICHE E TERMICHE II",
                "cfu": 6
            },
            {
                "name": "PROGETTAZIONE MECCANICA FUNZIONALE",
                "cfu": 6
            },
            {
                "name": "INGLESE II ",
                "cfu": 3
            },
            {
                "name": "PROGETTAZIONE MECCANICA II E MECCANICA SPERIMENTALE",
                "cfu": 12
            },
            {
                "name": "SIMULAZIONE E PROTOTIPAZIONE VIRTUALE ",
                "cfu": 6
            },
            {
                "name": "TECNOLOGIA MECCANICA II ",
                "cfu": 9
            },
            {
                "name": "IMPIANTI MECCANICI II ",
                "cfu": 6
            },
            {
                "name": "SISTEMI ELETTRICI PER L'ENERGIA",
                "cfu": 6
            },
            {
                "name": "TIROCINIO",
                "cfu": 6
            },
            {
                "name": "GESTIONE AZIENDALE ",
                "cfu": 6
            },
            {
                "name": "OLEODINAMICA E PNEUMATICA",
                "cfu": 12
            },
            {
                "name": "PROVA FINALE",
                "cfu": 12
            },
            {
                "name": "ESAME A SCELTA",
                "cfu": 6
            },
            {
                "name": "ESAME A SCELTA",
                "cfu": 6
            }
        ],
        "[LM30-24] - AERONAUTICO": [
            {
                "name": "FLUIDODINAMICA DELLE MACCHINE",
                "cfu": 6
            },
            {
                "name": "GASDINAMICA E PROPULSIONE",
                "cfu": 6
            },
            {
                "name": "MACCHINE A FLUIDO II E SISTEMI ENERGETICI II",
                "cfu": 12
            },
            {
                "name": "MECCANICA APPLICATA ALLE MACCHINE II",
                "cfu": 6
            },
            {
                "name": "DINAMICA E SIMULAZIONE DI AEROMOBILI",
                "cfu": 6
            },
            {
                "name": "INGLESE II ",
                "cfu": 3
            },
            {
                "name": "PROGETTAZIONE MECCANICA II E COSTRUZIONE DI MACCHINE",
                "cfu": 12
            },
            {
                "name": "TECNOLOGIA MECCANICA II ",
                "cfu": 9
            },
            {
                "name": "IMPIANTI MECCANICI II ",
                "cfu": 6
            },
            {
                "name": "LAVORAZIONI DI MATERIALI  AERONAUTICI",
                "cfu": 6
            },
            {
                "name": "PROVA FINALE",
                "cfu": 12
            },
            {
                "name": "TIROCINIO",
                "cfu": 6
            },
            {
                "name": "MISURE MECCANICHE E TERMICHE II",
                "cfu": 6
            },
            {
                "name": "PROGETTAZIONE CON MATERIALI INNOVATIVI E SPERIMENTAZIONE PER  AEROMOBILI",
                "cfu": 12
            },
            {
                "name": "ESAME A SCELTA",
                "cfu": 6
            },
            {
                "name": "ESAME A SCELTA",
                "cfu": 6
            }
        ],
        "[LM30-25] - SISTEMI DINAMICI": [
            {
                "name": "MACCHINE A FLUIDO II E SISTEMI ENERGETICI II",
                "cfu": 12
            },
            {
                "name": "MACCHINE ED AZIONAMENTI ELETTRICI",
                "cfu": 6
            },
            {
                "name": "MECCANICA APPLICATA ALLE MACCHINE II",
                "cfu": 6
            },
            {
                "name": "ANALYTICAL DYNAMICS",
                "cfu": 9
            },
            {
                "name": "INGLESE II ",
                "cfu": 3
            },
            {
                "name": "OPTIMIZATION METHODS",
                "cfu": 6
            },
            {
                "name": "SIMULAZIONE E PROTOTIPAZIONE VIRTUALE ",
                "cfu": 6
            },
            {
                "name": "VIBRATING MECHANICAL SYSTEMS",
                "cfu": 6
            },
            {
                "name": "DYNAMICS SYSTEMS AND CONTROL ",
                "cfu": 9
            },
            {
                "name": "INTRODUCTION TO SOLID MECHANICS",
                "cfu": 9
            },
            {
                "name": "LINEAR CONTROL THEORY",
                "cfu": 9
            },
            {
                "name": "TRANSPORT PHENOMENA",
                "cfu": 9
            },
            {
                "name": "PROVA FINALE",
                "cfu": 12
            },
            {
                "name": "TIROCINIO",
                "cfu": 6
            },
            {
                "name": "ESAME A SCELTA",
                "cfu": 6
            },
            {
                "name": "ESAME A SCELTA",
                "cfu": 6
            }
        ]
    },
    "2015": {
        "[LM30-20] - TECNOLOGICO": [
            {
                "name": "MACCHINE A FLUIDO II E SISTEMI ENERGETICI II",
                "cfu": 12
            },
            {
                "name": "MACCHINE ED AZIONAMENTI ELETTRICI",
                "cfu": 6
            },
            {
                "name": "MECCANICA APPLICATA ALLE MACCHINE II",
                "cfu": 6
            },
            {
                "name": "PRODUZIONE ASSISTITA DAL CALCOLATORE",
                "cfu": 6
            },
            {
                "name": "INGLESE II ",
                "cfu": 3
            },
            {
                "name": "PROGETTAZIONE MECCANICA II E COSTRUZIONE DI MACCHINE",
                "cfu": 12
            },
            {
                "name": "SIMULAZIONE E PROTOTIPAZIONE VIRTUALE ",
                "cfu": 6
            },
            {
                "name": "TECNOLOGIA MECCANICA II ",
                "cfu": 9
            },
            {
                "name": "IMPIANTI MECCANICI II ",
                "cfu": 6
            },
            {
                "name": "TECNOLOGIE SPECIALI E TECNOLOGIA DELLE GIUNZIONI",
                "cfu": 12
            },
            {
                "name": "TIROCINIO",
                "cfu": 6
            },
            {
                "name": "PROVA FINALE",
                "cfu": 12
            },
            {
                "name": "QUALITA' DELLE LAVORAZIONI MECCANICHE",
                "cfu": 6
            },
            {
                "name": "SICUREZZA DEGLI IMPIANTI INDUSTRIALI ",
                "cfu": 6
            },
            {
                "name": "ESAME A SCELTA",
                "cfu": 6
            },
            {
                "name": "ESAME A SCELTA",
                "cfu": 6
            }
        ],
        "[LM30-21] - ENERGIA": [
            {
                "name": "AZIONAMENTI A FLUIDO ",
                "cfu": 6
            },
            {
                "name": "MACCHINE A FLUIDO II E SISTEMI ENERGETICI II",
                "cfu": 12
            },
            {
                "name": "MACCHINE ED AZIONAMENTI ELETTRICI",
                "cfu": 6
            },
            {
                "name": "MECCANICA APPLICATA ALLE MACCHINE II",
                "cfu": 6
            },
            {
                "name": "INGLESE II ",
                "cfu": 3
            },
            {
                "name": "PROGETTAZIONE MECCANICA II E COSTRUZIONE DI MACCHINE",
                "cfu": 12
            },
            {
                "name": "SIMULAZIONE E PROTOTIPAZIONE VIRTUALE ",
                "cfu": 6
            },
            {
                "name": "TECNOLOGIA MECCANICA II ",
                "cfu": 9
            },
            {
                "name": "DINAMICA E CONTROLLO DELLE MACCHINE",
                "cfu": 6
            },
            {
                "name": "IMPIANTI MECCANICI II ",
                "cfu": 6
            },
            {
                "name": "MOTORI A COMBUSTIONE INTERNA",
                "cfu": 6
            },
            {
                "name": "PROVA FINALE",
                "cfu": 12
            },
            {
                "name": "TECNOLOGIE PER LE ENERGIE RINNOVABILI E CENTRALI TERMICHE",
                "cfu": 12
            },
            {
                "name": "TIROCINIO",
                "cfu": 6
            },
            {
                "name": "ESAME A SCELTA",
                "cfu": 6
            },
            {
                "name": "ESAME A SCELTA",
                "cfu": 6
            }
        ],
        "[LM30-22] - COSTRUTTIVO": [
            {
                "name": "MACCHINE A FLUIDO II E SISTEMI ENERGETICI II",
                "cfu": 12
            },
            {
                "name": "MACCHINE ED AZIONAMENTI ELETTRICI",
                "cfu": 6
            },
            {
                "name": "MECCANICA APPLICATA ALLE MACCHINE II",
                "cfu": 6
            },
            {
                "name": "REGOLAZIONE E CONTROLLO DEGLI IMPIANTI ",
                "cfu": 6
            },
            {
                "name": "INGLESE II ",
                "cfu": 3
            },
            {
                "name": "PROGETTAZIONE MECCANICA II E COSTRUZIONE DI MACCHINE",
                "cfu": 12
            },
            {
                "name": "SIMULAZIONE E PROTOTIPAZIONE VIRTUALE ",
                "cfu": 6
            },
            {
                "name": "TECNOLOGIA MECCANICA II ",
                "cfu": 9
            },
            {
                "name": "DIAGNOSTICA STRUTTURALE",
                "cfu": 6
            },
            {
                "name": "IMPIANTI MECCANICI II ",
                "cfu": 6
            },
            {
                "name": "MECCANICA DEL VEICOLO E PROGETTAZIONE ASSISTITA DI STRUTTURE MECCANICHE",
                "cfu": 12
            },
            {
                "name": "MECCANICA SPERIMENTALE",
                "cfu": 6
            },
            {
                "name": "PROVA FINALE",
                "cfu": 12
            },
            {
                "name": "TIROCINIO",
                "cfu": 6
            },
            {
                "name": "ESAME A SCELTA",
                "cfu": 6
            },
            {
                "name": "ESAME A SCELTA",
                "cfu": 6
            }
        ],
        "[LM30-23_TA] - INDUSTRIALE": [
            {
                "name": "MACCHINE A FLUIDO II E SISTEMI ENERGETICI II",
                "cfu": 12
            },
            {
                "name": "MECCANICA APPLICATA ALLE MACCHINE II",
                "cfu": 6
            },
            {
                "name": "MISURE MECCANICHE E TERMICHE II",
                "cfu": 6
            },
            {
                "name": "PROGETTAZIONE MECCANICA FUNZIONALE",
                "cfu": 6
            },
            {
                "name": "INGLESE II ",
                "cfu": 3
            },
            {
                "name": "PROGETTAZIONE MECCANICA II E MECCANICA SPERIMENTALE",
                "cfu": 12
            },
            {
                "name": "SIMULAZIONE E PROTOTIPAZIONE VIRTUALE ",
                "cfu": 6
            },
            {
                "name": "TECNOLOGIA MECCANICA II ",
                "cfu": 9
            },
            {
                "name": "IMPIANTI MECCANICI II ",
                "cfu": 6
            },
            {
                "name": "SISTEMI ELETTRICI PER L'ENERGIA",
                "cfu": 6
            },
            {
                "name": "TIROCINIO",
                "cfu": 6
            },
            {
                "name": "GESTIONE AZIENDALE ",
                "cfu": 6
            },
            {
                "name": "OLEODINAMICA E PNEUMATICA",
                "cfu": 12
            },
            {
                "name": "PROVA FINALE",
                "cfu": 12
            },
            {
                "name": "ESAME A SCELTA",
                "cfu": 6
            },
            {
                "name": "ESAME A SCELTA",
                "cfu": 6
            }
        ],
        "[LM30-24] - AERONAUTICO": [
            {
                "name": "FLUIDODINAMICA DELLE MACCHINE",
                "cfu": 6
            },
            {
                "name": "GASDINAMICA E PROPULSIONE",
                "cfu": 6
            },
            {
                "name": "MACCHINE A FLUIDO II E SISTEMI ENERGETICI II",
                "cfu": 12
            },
            {
                "name": "MECCANICA APPLICATA ALLE MACCHINE II",
                "cfu": 6
            },
            {
                "name": "DINAMICA E SIMULAZIONE DI AEROMOBILI",
                "cfu": 6
            },
            {
                "name": "INGLESE II ",
                "cfu": 3
            },
            {
                "name": "PROGETTAZIONE MECCANICA II E COSTRUZIONE DI MACCHINE",
                "cfu": 12
            },
            {
                "name": "TECNOLOGIA MECCANICA II ",
                "cfu": 9
            },
            {
                "name": "IMPIANTI MECCANICI II ",
                "cfu": 6
            },
            {
                "name": "MISURE MECCANICHE E TERMICHE II",
                "cfu": 6
            },
            {
                "name": "PROGETTAZIONE CON MATERIALI INNOVATIVI E SPERIMENTAZIONE PER  AEROMOBILI",
                "cfu": 12
            },
            {
                "name": "LAVORAZIONI DI MATERIALI  AERONAUTICI",
                "cfu": 6
            },
            {
                "name": "PROVA FINALE",
                "cfu": 12
            },
            {
                "name": "TIROCINIO",
                "cfu": 6
            },
            {
                "name": "ESAME A SCELTA",
                "cfu": 6
            },
            {
                "name": "ESAME A SCELTA",
                "cfu": 6
            }
        ],
        "[LM30-25] - SISTEMI DINAMICI": [
            {
                "name": "MACCHINE A FLUIDO II E SISTEMI ENERGETICI II",
                "cfu": 12
            },
            {
                "name": "MACCHINE ED AZIONAMENTI ELETTRICI",
                "cfu": 6
            },
            {
                "name": "MECCANICA APPLICATA ALLE MACCHINE II",
                "cfu": 6
            },
            {
                "name": "ADVANCED METHODS FOR STRUCTURAL OPTIMIZATION",
                "cfu": 6
            },
            {
                "name": "ANALYTICAL DYNAMICS",
                "cfu": 9
            },
            {
                "name": "INGLESE II ",
                "cfu": 3
            },
            {
                "name": "SIMULAZIONE E PROTOTIPAZIONE VIRTUALE ",
                "cfu": 6
            },
            {
                "name": "VIBRATING MECHANICAL SYSTEMS",
                "cfu": 6
            },
            {
                "name": "DYNAMICS SYSTEMS AND CONTROL ",
                "cfu": 9
            },
            {
                "name": "INTRODUCTION TO SOLID MECHANICS",
                "cfu": 9
            },
            {
                "name": "LINEAR CONTROL THEORY",
                "cfu": 9
            },
            {
                "name": "TRANSPORT PHENOMENA",
                "cfu": 9
            },
            {
                "name": "PROVA FINALE",
                "cfu": 12
            },
            {
                "name": "TIROCINIO",
                "cfu": 6
            },
            {
                "name": "ESAME A SCELTA",
                "cfu": 6
            },
            {
                "name": "ESAME A SCELTA",
                "cfu": 6
            }
        ]
    },
    "2016": {
        "[LM30-20] - TECNOLOGICO": [
            {
                "name": "MACCHINE A FLUIDO II E SISTEMI ENERGETICI II",
                "cfu": 12
            },
            {
                "name": "MACCHINE ED AZIONAMENTI ELETTRICI",
                "cfu": 6
            },
            {
                "name": "MECCANICA APPLICATA ALLE MACCHINE II",
                "cfu": 6
            },
            {
                "name": "PRODUZIONE ASSISTITA DAL CALCOLATORE",
                "cfu": 6
            },
            {
                "name": "INGLESE II ",
                "cfu": 3
            },
            {
                "name": "PROGETTAZIONE MECCANICA II E COSTRUZIONE DI MACCHINE",
                "cfu": 12
            },
            {
                "name": "SIMULAZIONE E PROTOTIPAZIONE VIRTUALE ",
                "cfu": 6
            },
            {
                "name": "TECNOLOGIA MECCANICA II ",
                "cfu": 9
            },
            {
                "name": "IMPIANTI MECCANICI II ",
                "cfu": 6
            },
            {
                "name": "TECNOLOGIE SPECIALI E TECNOLOGIA DELLE GIUNZIONI",
                "cfu": 12
            },
            {
                "name": "TIROCINIO",
                "cfu": 6
            },
            {
                "name": "PROVA FINALE",
                "cfu": 12
            },
            {
                "name": "QUALITA' DELLE LAVORAZIONI MECCANICHE",
                "cfu": 6
            },
            {
                "name": "SICUREZZA DEGLI IMPIANTI INDUSTRIALI ",
                "cfu": 6
            },
            {
                "name": "ESAME A SCELTA",
                "cfu": 6
            },
            {
                "name": "ESAME A SCELTA",
                "cfu": 6
            }
        ],
        "[LM30-21] - ENERGIA": [
            {
                "name": "AZIONAMENTI A FLUIDO ",
                "cfu": 6
            },
            {
                "name": "MACCHINE A FLUIDO II E SISTEMI ENERGETICI II",
                "cfu": 12
            },
            {
                "name": "MACCHINE ED AZIONAMENTI ELETTRICI",
                "cfu": 6
            },
            {
                "name": "MECCANICA APPLICATA ALLE MACCHINE II",
                "cfu": 6
            },
            {
                "name": "INGLESE II ",
                "cfu": 3
            },
            {
                "name": "PROGETTAZIONE MECCANICA II E COSTRUZIONE DI MACCHINE",
                "cfu": 12
            },
            {
                "name": "SIMULAZIONE E PROTOTIPAZIONE VIRTUALE ",
                "cfu": 6
            },
            {
                "name": "TECNOLOGIA MECCANICA II ",
                "cfu": 9
            },
            {
                "name": "DINAMICA E CONTROLLO DELLE MACCHINE",
                "cfu": 6
            },
            {
                "name": "IMPIANTI MECCANICI II ",
                "cfu": 6
            },
            {
                "name": "MOTORI A COMBUSTIONE INTERNA",
                "cfu": 6
            },
            {
                "name": "PROVA FINALE",
                "cfu": 12
            },
            {
                "name": "TECNOLOGIE PER LE ENERGIE RINNOVABILI E CENTRALI TERMICHE",
                "cfu": 12
            },
            {
                "name": "TIROCINIO",
                "cfu": 6
            },
            {
                "name": "ESAME A SCELTA",
                "cfu": 6
            },
            {
                "name": "ESAME A SCELTA",
                "cfu": 6
            }
        ],
        "[LM30-22] - COSTRUTTIVO": [
            {
                "name": "MACCHINE A FLUIDO II E SISTEMI ENERGETICI II",
                "cfu": 12
            },
            {
                "name": "MACCHINE ED AZIONAMENTI ELETTRICI",
                "cfu": 6
            },
            {
                "name": "MECCANICA APPLICATA ALLE MACCHINE II",
                "cfu": 6
            },
            {
                "name": "REGOLAZIONE E CONTROLLO DEGLI IMPIANTI ",
                "cfu": 6
            },
            {
                "name": "INGLESE II ",
                "cfu": 3
            },
            {
                "name": "PROGETTAZIONE MECCANICA II E COSTRUZIONE DI MACCHINE",
                "cfu": 12
            },
            {
                "name": "SIMULAZIONE E PROTOTIPAZIONE VIRTUALE ",
                "cfu": 6
            },
            {
                "name": "TECNOLOGIA MECCANICA II ",
                "cfu": 9
            },
            {
                "name": "DIAGNOSTICA STRUTTURALE",
                "cfu": 6
            },
            {
                "name": "IMPIANTI MECCANICI II ",
                "cfu": 6
            },
            {
                "name": "MECCANICA DEL VEICOLO E PROGETTAZIONE ASSISTITA DI STRUTTURE MECCANICHE",
                "cfu": 12
            },
            {
                "name": "MECCANICA SPERIMENTALE",
                "cfu": 6
            },
            {
                "name": "PROVA FINALE",
                "cfu": 12
            },
            {
                "name": "TIROCINIO",
                "cfu": 6
            },
            {
                "name": "ESAME A SCELTA",
                "cfu": 6
            },
            {
                "name": "ESAME A SCELTA",
                "cfu": 6
            }
        ],
        "[LM30-23_TA] - INDUSTRIALE": [
            {
                "name": "MACCHINE A FLUIDO II E SISTEMI ENERGETICI II",
                "cfu": 12
            },
            {
                "name": "MECCANICA APPLICATA ALLE MACCHINE II",
                "cfu": 6
            },
            {
                "name": "MISURE MECCANICHE E TERMICHE II",
                "cfu": 6
            },
            {
                "name": "PROGETTAZIONE MECCANICA FUNZIONALE",
                "cfu": 6
            },
            {
                "name": "INGLESE II ",
                "cfu": 3
            },
            {
                "name": "PROGETTAZIONE MECCANICA II E MECCANICA SPERIMENTALE",
                "cfu": 12
            },
            {
                "name": "SIMULAZIONE E PROTOTIPAZIONE VIRTUALE ",
                "cfu": 6
            },
            {
                "name": "TECNOLOGIA MECCANICA II ",
                "cfu": 9
            },
            {
                "name": "IMPIANTI MECCANICI II ",
                "cfu": 6
            },
            {
                "name": "SISTEMI ELETTRICI PER L'ENERGIA",
                "cfu": 6
            },
            {
                "name": "TIROCINIO",
                "cfu": 6
            },
            {
                "name": "GESTIONE AZIENDALE ",
                "cfu": 6
            },
            {
                "name": "OLEODINAMICA E PNEUMATICA",
                "cfu": 12
            },
            {
                "name": "PROVA FINALE",
                "cfu": 12
            },
            {
                "name": "ESAME A SCELTA",
                "cfu": 6
            },
            {
                "name": "ESAME A SCELTA",
                "cfu": 6
            }
        ],
        "[LM30-24] - AERONAUTICO": [
            {
                "name": "FLUIDODINAMICA DELLE MACCHINE",
                "cfu": 6
            },
            {
                "name": "GASDINAMICA E PROPULSIONE",
                "cfu": 6
            },
            {
                "name": "MACCHINE A FLUIDO II E SISTEMI ENERGETICI II",
                "cfu": 12
            },
            {
                "name": "MECCANICA APPLICATA ALLE MACCHINE II",
                "cfu": 6
            },
            {
                "name": "DINAMICA E SIMULAZIONE DI AEROMOBILI",
                "cfu": 6
            },
            {
                "name": "INGLESE II ",
                "cfu": 3
            },
            {
                "name": "PROGETTAZIONE MECCANICA II E COSTRUZIONE DI MACCHINE",
                "cfu": 12
            },
            {
                "name": "TECNOLOGIA MECCANICA II ",
                "cfu": 9
            },
            {
                "name": "IMPIANTI MECCANICI II ",
                "cfu": 6
            },
            {
                "name": "MISURE MECCANICHE E TERMICHE II",
                "cfu": 6
            },
            {
                "name": "PROGETTAZIONE CON MATERIALI INNOVATIVI E SPERIMENTAZIONE PER  AEROMOBILI",
                "cfu": 12
            },
            {
                "name": "LAVORAZIONI DI MATERIALI  AERONAUTICI",
                "cfu": 6
            },
            {
                "name": "PROVA FINALE",
                "cfu": 12
            },
            {
                "name": "TIROCINIO",
                "cfu": 6
            },
            {
                "name": "ESAME A SCELTA",
                "cfu": 6
            },
            {
                "name": "ESAME A SCELTA",
                "cfu": 6
            }
        ],
        "[LM30-25] - SISTEMI DINAMICI": [
            {
                "name": "MACCHINE A FLUIDO II E SISTEMI ENERGETICI II",
                "cfu": 12
            },
            {
                "name": "MECCANICA APPLICATA ALLE MACCHINE II",
                "cfu": 6
            },
            {
                "name": "ROBOTICS",
                "cfu": 6
            },
            {
                "name": "ADVANCED METHODS FOR STRUCTURAL OPTIMIZATION",
                "cfu": 6
            },
            {
                "name": "ANALYTICAL DYNAMICS",
                "cfu": 9
            },
            {
                "name": "INGLESE II ",
                "cfu": 3
            },
            {
                "name": "SIMULAZIONE E PROTOTIPAZIONE VIRTUALE ",
                "cfu": 6
            },
            {
                "name": "VIBRATING MECHANICAL SYSTEMS",
                "cfu": 6
            },
            {
                "name": "DYNAMICS SYSTEMS AND CONTROL ",
                "cfu": 9
            },
            {
                "name": "INTRODUCTION TO SOLID MECHANICS",
                "cfu": 9
            },
            {
                "name": "LINEAR CONTROL THEORY",
                "cfu": 9
            },
            {
                "name": "TRANSPORT PHENOMENA",
                "cfu": 9
            },
            {
                "name": "PROVA FINALE",
                "cfu": 12
            },
            {
                "name": "TIROCINIO",
                "cfu": 6
            },
            {
                "name": "ESAME A SCELTA",
                "cfu": 6
            },
            {
                "name": "ESAME A SCELTA",
                "cfu": 6
            }
        ]
    },
    "2017": {}
}