{
    "2010": {},
    "2011": {
        "[LM17-01] - SISTEMI INFORMATIVI": [
            {
                "name": "ELABORAZIONE DI IMMAGINI E VISIONE ARTIFICIALE",
                "cfu": 12
            },
            {
                "name": "LINGUAGGI FORMALI E COMPILATORI",
                "cfu": 9
            },
            {
                "name": "METODI DI CONTROLLO NEI SISTEMI DI ELABORAZIONE E TELECOMUNICAZIONE",
                "cfu": 6
            },
            {
                "name": "ARCHITETTURE DI CALCOLO SPECIALIZZATE",
                "cfu": 6
            },
            {
                "name": "METODI DI OTTIMIZZAZIONE",
                "cfu": 6
            },
            {
                "name": "SICUREZZA INFORMATICA E SISTEMI DISTRIBUITI",
                "cfu": 12
            },
            {
                "name": "SISTEMI E RETI MULTIMEDIALI",
                "cfu": 6
            },
            {
                "name": "INGEGNERIA DEL SOFTWARE AVANZATA",
                "cfu": 6
            },
            {
                "name": "LINGUAGGI E TECNOLOGIE WEB",
                "cfu": 12
            },
            {
                "name": "LOGICA E INTELLIGENZA ARTIFICIALE",
                "cfu": 12
            },
            {
                "name": "INGLESE AVANZATO",
                "cfu": 3
            },
            {
                "name": "MODELLI DI e-BUSINESS E BUSINESS INTELLIGENCE",
                "cfu": 6
            },
            {
                "name": "PROVA FINALE",
                "cfu": 15
            },
            {
                "name": "ESAME A SCELTA",
                "cfu": 6
            },
            {
                "name": "ESAME A SCELTA",
                "cfu": 3
            }
        ],
        "[LM17-02] - SISTEMI PRODUTTIVI": [
            {
                "name": "ELABORAZIONE DI IMMAGINI E VISIONE ARTIFICIALE",
                "cfu": 12
            },
            {
                "name": "INTERAZIONE UOMO MACCHINA",
                "cfu": 9
            },
            {
                "name": "MODELLISTICA DEI SISTEMI AD EVENTI DISCRETI",
                "cfu": 6
            },
            {
                "name": "ARCHITETTURE DI CALCOLO SPECIALIZZATE",
                "cfu": 6
            },
            {
                "name": "GRAFI E COMBINATORIA",
                "cfu": 6
            },
            {
                "name": "METODI DI OTTIMIZZAZIONE",
                "cfu": 6
            },
            {
                "name": "SICUREZZA INFORMATICA E SISTEMI DISTRIBUITI",
                "cfu": 12
            },
            {
                "name": "INGEGNERIA DEL SOFTWARE AVANZATA",
                "cfu": 6
            },
            {
                "name": "LINGUAGGI E TECNOLOGIE WEB",
                "cfu": 12
            },
            {
                "name": "LOGICA E INTELLIGENZA ARTIFICIALE",
                "cfu": 12
            },
            {
                "name": "INGLESE AVANZATO",
                "cfu": 3
            },
            {
                "name": "PROVA FINALE",
                "cfu": 15
            },
            {
                "name": "SISTEMI PROGRAMMABILI",
                "cfu": 6
            },
            {
                "name": "ESAME A SCELTA",
                "cfu": 6
            },
            {
                "name": "ESAME A SCELTA",
                "cfu": 3
            }
        ]
    },
    "2012": {
        "[LM17-01] - SISTEMI INFORMATIVI": [
            {
                "name": "ELABORAZIONE DI IMMAGINI E VISIONE ARTIFICIALE",
                "cfu": 12
            },
            {
                "name": "LINGUAGGI FORMALI E COMPILATORI",
                "cfu": 9
            },
            {
                "name": "METODI DI CONTROLLO NEI SISTEMI DI ELABORAZIONE E TELECOMUNICAZIONE",
                "cfu": 6
            },
            {
                "name": "METODI DI OTTIMIZZAZIONE",
                "cfu": 6
            },
            {
                "name": "SICUREZZA INFORMATICA E SISTEMI DISTRIBUITI",
                "cfu": 12
            },
            {
                "name": "SISTEMI E RETI MULTIMEDIALI",
                "cfu": 6
            },
            {
                "name": "INGEGNERIA DEL SOFTWARE AVANZATA",
                "cfu": 6
            },
            {
                "name": "LINGUAGGI E TECNOLOGIE WEB",
                "cfu": 12
            },
            {
                "name": "LOGICA E INTELLIGENZA ARTIFICIALE",
                "cfu": 12
            },
            {
                "name": "MODELLI DI e-BUSINESS E BUSINESS INTELLIGENCE",
                "cfu": 6
            },
            {
                "name": "PROVA FINALE",
                "cfu": 15
            },
            {
                "name": "TIROCINIO",
                "cfu": 6
            },
            {
                "name": "ESAME A SCELTA",
                "cfu": 6
            },
            {
                "name": "ESAME A SCELTA",
                "cfu": 6
            }
        ],
        "[LM17-02] - SISTEMI PRODUTTIVI": [
            {
                "name": "ELABORAZIONE DI IMMAGINI E VISIONE ARTIFICIALE",
                "cfu": 12
            },
            {
                "name": "INTERAZIONE UOMO MACCHINA",
                "cfu": 9
            },
            {
                "name": "MODELLISTICA DEI SISTEMI AD EVENTI DISCRETI",
                "cfu": 6
            },
            {
                "name": "GRAFI E COMBINATORIA",
                "cfu": 6
            },
            {
                "name": "METODI DI OTTIMIZZAZIONE",
                "cfu": 6
            },
            {
                "name": "SICUREZZA INFORMATICA E SISTEMI DISTRIBUITI",
                "cfu": 12
            },
            {
                "name": "INGEGNERIA DEL SOFTWARE AVANZATA",
                "cfu": 6
            },
            {
                "name": "LINGUAGGI E TECNOLOGIE WEB",
                "cfu": 12
            },
            {
                "name": "LOGICA E INTELLIGENZA ARTIFICIALE",
                "cfu": 12
            },
            {
                "name": "PROVA FINALE",
                "cfu": 15
            },
            {
                "name": "SISTEMI PROGRAMMABILI",
                "cfu": 6
            },
            {
                "name": "TIROCINIO",
                "cfu": 6
            },
            {
                "name": "ESAME A SCELTA",
                "cfu": 6
            },
            {
                "name": "ESAME A SCELTA",
                "cfu": 6
            }
        ]
    },
    "2013": {
        "[LM17-20] - SISTEMI INFORMATIVI": [
            {
                "name": "ELABORAZIONE DI IMMAGINI E VISIONE ARTIFICIALE",
                "cfu": 12
            },
            {
                "name": "LINGUAGGI FORMALI E COMPILATORI",
                "cfu": 6
            },
            {
                "name": "METODI DI CONTROLLO NEI SISTEMI DI ELABORAZIONE E TELECOMUNICAZIONE",
                "cfu": 6
            },
            {
                "name": "INTERNET OF THINGS",
                "cfu": 6
            },
            {
                "name": "METODI DI OTTIMIZZAZIONE",
                "cfu": 6
            },
            {
                "name": "SICUREZZA INFORMATICA E SISTEMI DISTRIBUITI",
                "cfu": 12
            },
            {
                "name": "SISTEMI DIGITALI PROGRAMMABILI",
                "cfu": 6
            },
            {
                "name": "INGEGNERIA DEL SOFTWARE AVANZATA",
                "cfu": 6
            },
            {
                "name": "LINGUAGGI E TECNOLOGIE WEB",
                "cfu": 12
            },
            {
                "name": "LOGICA E INTELLIGENZA ARTIFICIALE",
                "cfu": 12
            },
            {
                "name": "PROVA FINALE",
                "cfu": 18
            },
            {
                "name": "TIROCINIO",
                "cfu": 6
            },
            {
                "name": "ESAME A SCELTA",
                "cfu": 6
            },
            {
                "name": "ESAME A SCELTA",
                "cfu": 6
            }
        ],
        "[LM17-21] - SISTEMI PRODUTTIVI": [
            {
                "name": "ELABORAZIONE DI IMMAGINI E VISIONE ARTIFICIALE",
                "cfu": 12
            },
            {
                "name": "INTERAZIONE UOMO MACCHINA",
                "cfu": 6
            },
            {
                "name": "MODELLISTICA DEI SISTEMI AD EVENTI DISCRETI",
                "cfu": 6
            },
            {
                "name": "GRAFI E COMBINATORIA",
                "cfu": 6
            },
            {
                "name": "MODELLI DI e-BUSINESS E BUSINESS INTELLIGENCE",
                "cfu": 6
            },
            {
                "name": "SICUREZZA INFORMATICA E SISTEMI DISTRIBUITI",
                "cfu": 12
            },
            {
                "name": "INGEGNERIA DEL SOFTWARE AVANZATA",
                "cfu": 6
            },
            {
                "name": "LINGUAGGI E TECNOLOGIE WEB",
                "cfu": 12
            },
            {
                "name": "LOGICA E INTELLIGENZA ARTIFICIALE",
                "cfu": 12
            },
            {
                "name": "PROVA FINALE",
                "cfu": 18
            },
            {
                "name": "SISTEMI PROGRAMMABILI",
                "cfu": 6
            },
            {
                "name": "TIROCINIO",
                "cfu": 6
            },
            {
                "name": "ESAME A SCELTA",
                "cfu": 6
            },
            {
                "name": "ESAME A SCELTA",
                "cfu": 6
            }
        ]
    },
    "2014": {
        "[LM17-20] - SISTEMI INFORMATIVI": [
            {
                "name": "LINGUAGGI FORMALI E COMPILATORI",
                "cfu": 6
            },
            {
                "name": "METODI DI CONTROLLO NEI SISTEMI DI ELABORAZIONE E TELECOMUNICAZIONE",
                "cfu": 6
            },
            {
                "name": "SICUREZZA INFORMATICA",
                "cfu": 6
            },
            {
                "name": "INTERNET OF THINGS",
                "cfu": 6
            },
            {
                "name": "METODI DI OTTIMIZZAZIONE",
                "cfu": 6
            },
            {
                "name": "SISTEMI DIGITALI PROGRAMMABILI",
                "cfu": 6
            },
            {
                "name": "SISTEMI DISTRIBUITI",
                "cfu": 6
            },
            {
                "name": "ELABORAZIONE DI IMMAGINI E VISIONE ARTIFICIALE",
                "cfu": 12
            },
            {
                "name": "INGEGNERIA DEL SOFTWARE AVANZATA",
                "cfu": 6
            },
            {
                "name": "LINGUAGGI E TECNOLOGIE WEB",
                "cfu": 12
            },
            {
                "name": "LOGICA E INTELLIGENZA ARTIFICIALE",
                "cfu": 12
            },
            {
                "name": "PROVA FINALE",
                "cfu": 18
            },
            {
                "name": "TIROCINIO",
                "cfu": 6
            },
            {
                "name": "ESAME A SCELTA",
                "cfu": 6
            },
            {
                "name": "ESAME A SCELTA",
                "cfu": 6
            }
        ],
        "[LM17-21] - SISTEMI PRODUTTIVI": [
            {
                "name": "INTERAZIONE UOMO MACCHINA",
                "cfu": 6
            },
            {
                "name": "MATEMATICA DISCRETA",
                "cfu": 6
            },
            {
                "name": "MODELLISTICA DEI SISTEMI AD EVENTI DISCRETI",
                "cfu": 6
            },
            {
                "name": "SICUREZZA INFORMATICA",
                "cfu": 6
            },
            {
                "name": "MODELLI DI e-BUSINESS E BUSINESS INTELLIGENCE",
                "cfu": 6
            },
            {
                "name": "SISTEMI DISTRIBUITI",
                "cfu": 6
            },
            {
                "name": "ELABORAZIONE DI IMMAGINI E VISIONE ARTIFICIALE",
                "cfu": 12
            },
            {
                "name": "INGEGNERIA DEL SOFTWARE AVANZATA",
                "cfu": 6
            },
            {
                "name": "LINGUAGGI E TECNOLOGIE WEB",
                "cfu": 12
            },
            {
                "name": "LOGICA E INTELLIGENZA ARTIFICIALE",
                "cfu": 12
            },
            {
                "name": "SISTEMI PROGRAMMABILI",
                "cfu": 6
            },
            {
                "name": "PROVA FINALE",
                "cfu": 18
            },
            {
                "name": "TIROCINIO",
                "cfu": 6
            },
            {
                "name": "ESAME A SCELTA",
                "cfu": 6
            },
            {
                "name": "ESAME A SCELTA",
                "cfu": 6
            }
        ]
    },
    "2015": {
        "[LM17-22] - INFORMATION SYSTEMS": [
            {
                "name": "CONTROL METHODS FOR COMPUTER NETWORKS",
                "cfu": 6
            },
            {
                "name": "DATA SECURITY",
                "cfu": 6
            },
            {
                "name": "FORMAL LANGUAGES AND COMPILERS",
                "cfu": 6
            },
            {
                "name": "DISTRIBUTED SYSTEMS",
                "cfu": 6
            },
            {
                "name": "E-BUSINESS MODELS AND BUSINESS INTELLIGENCE",
                "cfu": 6
            },
            {
                "name": "INTERNET OF THINGS",
                "cfu": 6
            },
            {
                "name": "NUMERICAL METHODS FOR IT",
                "cfu": 6
            },
            {
                "name": "IMAGE PROCESSING AND ARTIFICIAL VISION",
                "cfu": 12
            },
            {
                "name": "ADVANCED SOFTWARE ENGINEERING",
                "cfu": 6
            },
            {
                "name": "FINAL EXAMINATION",
                "cfu": 18
            },
            {
                "name": "INTERNSHIP",
                "cfu": 6
            },
            {
                "name": "LOGIC AND ARTIFICIAL INTELLIGENCE",
                "cfu": 12
            },
            {
                "name": "WEB LANGUAGES AND  TECHNOLOGIES",
                "cfu": 12
            },
            {
                "name": "ESAME A SCELTA",
                "cfu": 6
            },
            {
                "name": "ESAME A SCELTA",
                "cfu": 6
            }
        ],
        "[LM17-23] - PRODUCTIVE SYSTEMS": [
            {
                "name": "DATA SECURITY",
                "cfu": 6
            },
            {
                "name": "DISCRETE MATHEMATICS",
                "cfu": 6
            },
            {
                "name": "MODELING OF DISCRETE EVENT SYSTEMS",
                "cfu": 6
            },
            {
                "name": "DIGITAL PROGRAMMABLE SYSTEMS",
                "cfu": 6
            },
            {
                "name": "DISTRIBUTED SYSTEMS",
                "cfu": 6
            },
            {
                "name": "HUMAN COMPUTER INTERACTION",
                "cfu": 6
            },
            {
                "name": "IMAGE PROCESSING AND ARTIFICIAL VISION",
                "cfu": 12
            },
            {
                "name": "ADVANCED SOFTWARE ENGINEERING",
                "cfu": 6
            },
            {
                "name": "FINAL EXAMINATION",
                "cfu": 18
            },
            {
                "name": "INTERNSHIP",
                "cfu": 6
            },
            {
                "name": "LOGIC AND ARTIFICIAL INTELLIGENCE",
                "cfu": 12
            },
            {
                "name": "MEASUREMENT AND DATA ACQUISITION SYSTEMS",
                "cfu": 6
            },
            {
                "name": "WEB LANGUAGES AND  TECHNOLOGIES",
                "cfu": 12
            },
            {
                "name": "ESAME A SCELTA",
                "cfu": 6
            },
            {
                "name": "ESAME A SCELTA",
                "cfu": 6
            }
        ]
    },
    "2016": {
        "[LM17-22] - INFORMATION SYSTEMS": [
            {
                "name": "CONTROL METHODS FOR COMPUTER NETWORKS",
                "cfu": 6
            },
            {
                "name": "DATA SECURITY",
                "cfu": 6
            },
            {
                "name": "FORMAL LANGUAGES AND COMPILERS",
                "cfu": 6
            },
            {
                "name": "DISTRIBUTED SYSTEMS",
                "cfu": 6
            },
            {
                "name": "E-BUSINESS MODELS AND BUSINESS INTELLIGENCE",
                "cfu": 6
            },
            {
                "name": "INTERNET OF THINGS",
                "cfu": 6
            },
            {
                "name": "NUMERICAL METHODS FOR IT",
                "cfu": 6
            },
            {
                "name": "IMAGE PROCESSING AND ARTIFICIAL VISION",
                "cfu": 12
            },
            {
                "name": "ADVANCED SOFTWARE ENGINEERING",
                "cfu": 6
            },
            {
                "name": "LOGIC AND ARTIFICIAL INTELLIGENCE",
                "cfu": 12
            },
            {
                "name": "FINAL EXAMINATION",
                "cfu": 18
            },
            {
                "name": "INTERNSHIP",
                "cfu": 6
            },
            {
                "name": "WEB LANGUAGES AND  TECHNOLOGIES",
                "cfu": 12
            },
            {
                "name": "ESAME A SCELTA",
                "cfu": 6
            },
            {
                "name": "ESAME A SCELTA",
                "cfu": 6
            }
        ],
        "[LM17-23] - PRODUCTIVE SYSTEMS": [
            {
                "name": "DATA SECURITY",
                "cfu": 6
            },
            {
                "name": "ENGINEERED INTELLIGENT SYSTEMS",
                "cfu": 6
            },
            {
                "name": "MODELING OF DISCRETE EVENT SYSTEMS",
                "cfu": 6
            },
            {
                "name": "DIGITAL PROGRAMMABLE SYSTEMS",
                "cfu": 6
            },
            {
                "name": "DISTRIBUTED SYSTEMS",
                "cfu": 6
            },
            {
                "name": "HUMAN COMPUTER INTERACTION",
                "cfu": 6
            },
            {
                "name": "IMAGE PROCESSING AND ARTIFICIAL VISION",
                "cfu": 12
            },
            {
                "name": "ADVANCED SOFTWARE ENGINEERING",
                "cfu": 6
            },
            {
                "name": "LOGIC AND ARTIFICIAL INTELLIGENCE",
                "cfu": 12
            },
            {
                "name": "FINAL EXAMINATION",
                "cfu": 18
            },
            {
                "name": "INTERNSHIP",
                "cfu": 6
            },
            {
                "name": "MEASUREMENT AND DATA ACQUISITION SYSTEMS",
                "cfu": 6
            },
            {
                "name": "WEB LANGUAGES AND  TECHNOLOGIES",
                "cfu": 12
            },
            {
                "name": "ESAME A SCELTA",
                "cfu": 6
            },
            {
                "name": "ESAME A SCELTA",
                "cfu": 6
            }
        ]
    },
    "2017": {}
}