{
    "2011": {
        "[LT31-01] - MECCANICA - BARI": [
            {
                "name": "ECONOMIA ED ORGANIZZAZIONE AZIENDALE ",
                "cfu": 6
            },
            {
                "name": "FONDAMENTI DI INFORMATICA",
                "cfu": 6
            },
            {
                "name": "GEOMETRIA E ALGEBRA",
                "cfu": 6
            },
            {
                "name": "INGLESE I",
                "cfu": 3
            },
            {
                "name": "METODI DI RAPPRESENTAZIONE TECNICA",
                "cfu": 6
            },
            {
                "name": "CHIMICA E COMPLEMENTI DI CHIMICA",
                "cfu": 9
            },
            {
                "name": "FISICA GENERALE",
                "cfu": 12
            },
            {
                "name": "ANALISI MATEMATICA",
                "cfu": 12
            },
            {
                "name": "FISICA TECNICA ",
                "cfu": 6
            },
            {
                "name": "FLUIDODINAMICA",
                "cfu": 6
            },
            {
                "name": "MECCANICA APPLICATA ALLE MACCHINE I",
                "cfu": 12
            },
            {
                "name": "MECCANICA RAZIONALE",
                "cfu": 6
            },
            {
                "name": "PRINCIPI DI INGEGNERIA ELETTRICA ",
                "cfu": 6
            },
            {
                "name": "SCIENZA DELLE COSTRUZIONI",
                "cfu": 12
            },
            {
                "name": "TECNOLOGIA GENERALE DEI MATERIALI",
                "cfu": 6
            },
            {
                "name": "TECNOLOGIA MECCANICA I",
                "cfu": 6
            },
            {
                "name": "TIROCINI",
                "cfu": 6
            },
            {
                "name": "PROVA FINALE",
                "cfu": 3
            },
            {
                "name": "IMPIANTI MECCANICI I",
                "cfu": 9
            },
            {
                "name": "MECCANICA DEI MATERIALI E PROGETTAZIONE MECCANICA I",
                "cfu": 12
            },
            {
                "name": "MISURE MECCANICHE E TERMICHE",
                "cfu": 6
            },
            {
                "name": "SISTEMI ENERGETICI I E MACCHINE A FLUIDO I",
                "cfu": 12
            },
            {
                "name": "ESAME A SCELTA",
                "cfu": 6
            },
            {
                "name": "ESAME A SCELTA",
                "cfu": 6
            }
        ],
        "[LT31-02] - INDUSTRIALE - TARANTO": [
            {
                "name": "ELEMENTI DI ECONOMIA ",
                "cfu": 6
            },
            {
                "name": "FONDAMENTI DI INFORMATICA",
                "cfu": 6
            },
            {
                "name": "GEOMETRIA E ALGEBRA",
                "cfu": 6
            },
            {
                "name": "METODI DI RAPPRESENTAZIONE TECNICA",
                "cfu": 6
            },
            {
                "name": "CHIMICA E COMPLEMENTI DI CHIMICA",
                "cfu": 9
            },
            {
                "name": "FISICA GENERALE",
                "cfu": 12
            },
            {
                "name": "INGLESE I",
                "cfu": 3
            },
            {
                "name": "ANALISI MATEMATICA",
                "cfu": 12
            },
            {
                "name": "COMPLEMENTI DI MATEMATICA",
                "cfu": 6
            },
            {
                "name": "FISICA TECNICA ",
                "cfu": 6
            },
            {
                "name": "MATERIALI E TECNOLOGIA MECCANICA",
                "cfu": 12
            },
            {
                "name": "MECCANICA APPLICATA ALLE MACCHINE I",
                "cfu": 12
            },
            {
                "name": "MECCANICA DEI FLUIDI ",
                "cfu": 6
            },
            {
                "name": "MECCANICA RAZIONALE",
                "cfu": 6
            },
            {
                "name": "PRINCIPI DI INGEGNERIA ELETTRICA ",
                "cfu": 6
            },
            {
                "name": "SCIENZA DELLE COSTRUZIONI",
                "cfu": 6
            },
            {
                "name": "FONDAMENTI DELLA MISURAZIONE E METROLOGIA",
                "cfu": 9
            },
            {
                "name": "IMPIANTI MECCANICI I",
                "cfu": 6
            },
            {
                "name": "MECCANICA DEI MATERIALI E PROGETTAZIONE MECCANICA I",
                "cfu": 12
            },
            {
                "name": "PROVA FINALE",
                "cfu": 3
            },
            {
                "name": "SISTEMI ENERGETICI I E MACCHINE A FLUIDO I",
                "cfu": 12
            },
            {
                "name": "TIROCINI",
                "cfu": 6
            },
            {
                "name": "ESAME A SCELTA",
                "cfu": 6
            },
            {
                "name": "ESAME A SCELTA",
                "cfu": 6
            }
        ]
    },
    "2012": {
        "[LT31-01] - MECCANICA - BARI": [
            {
                "name": "ECONOMIA ED ORGANIZZAZIONE AZIENDALE ",
                "cfu": 6
            },
            {
                "name": "FONDAMENTI DI INFORMATICA",
                "cfu": 6
            },
            {
                "name": "GEOMETRIA E ALGEBRA",
                "cfu": 6
            },
            {
                "name": "METODI DI RAPPRESENTAZIONE TECNICA",
                "cfu": 6
            },
            {
                "name": "CHIMICA E COMPLEMENTI DI CHIMICA",
                "cfu": 9
            },
            {
                "name": "FISICA GENERALE",
                "cfu": 12
            },
            {
                "name": "INGLESE I",
                "cfu": 3
            },
            {
                "name": "ANALISI MATEMATICA",
                "cfu": 12
            },
            {
                "name": "FISICA TECNICA ",
                "cfu": 6
            },
            {
                "name": "FLUIDODINAMICA",
                "cfu": 6
            },
            {
                "name": "MECCANICA RAZIONALE",
                "cfu": 6
            },
            {
                "name": "PRINCIPI DI INGEGNERIA ELETTRICA ",
                "cfu": 6
            },
            {
                "name": "TECNOLOGIA GENERALE DEI MATERIALI",
                "cfu": 6
            },
            {
                "name": "MECCANICA APPLICATA ALLE MACCHINE I",
                "cfu": 12
            },
            {
                "name": "SCIENZA DELLE COSTRUZIONI",
                "cfu": 12
            },
            {
                "name": "TECNOLOGIA MECCANICA I",
                "cfu": 6
            },
            {
                "name": "MECCANICA DEI MATERIALI E PROGETTAZIONE MECCANICA I",
                "cfu": 12
            },
            {
                "name": "SISTEMI ENERGETICI I E MACCHINE A FLUIDO I",
                "cfu": 12
            },
            {
                "name": "TIROCINI",
                "cfu": 6
            },
            {
                "name": "IMPIANTI MECCANICI I",
                "cfu": 9
            },
            {
                "name": "MISURE MECCANICHE E TERMICHE",
                "cfu": 6
            },
            {
                "name": "PROVA FINALE",
                "cfu": 3
            },
            {
                "name": "ESAME A SCELTA",
                "cfu": 6
            },
            {
                "name": "ESAME A SCELTA",
                "cfu": 6
            }
        ],
        "[LT31-02] - INDUSTRIALE - TARANTO": [
            {
                "name": "ECONOMIA ED ORGANIZZAZIONE AZIENDALE ",
                "cfu": 6
            },
            {
                "name": "FONDAMENTI DI INFORMATICA",
                "cfu": 6
            },
            {
                "name": "GEOMETRIA E ALGEBRA",
                "cfu": 6
            },
            {
                "name": "METODI DI RAPPRESENTAZIONE TECNICA",
                "cfu": 6
            },
            {
                "name": "CHIMICA E COMPLEMENTI DI CHIMICA",
                "cfu": 9
            },
            {
                "name": "FISICA GENERALE",
                "cfu": 12
            },
            {
                "name": "INGLESE I",
                "cfu": 3
            },
            {
                "name": "ANALISI MATEMATICA",
                "cfu": 12
            },
            {
                "name": "COMPLEMENTI DI MATEMATICA",
                "cfu": 6
            },
            {
                "name": "MATERIALI E TECNOLOGIA MECCANICA",
                "cfu": 12
            },
            {
                "name": "MECCANICA RAZIONALE",
                "cfu": 6
            },
            {
                "name": "SCIENZA DELLE COSTRUZIONI",
                "cfu": 6
            },
            {
                "name": "FISICA TECNICA ",
                "cfu": 6
            },
            {
                "name": "MECCANICA APPLICATA ALLE MACCHINE I",
                "cfu": 12
            },
            {
                "name": "MECCANICA DEI FLUIDI ",
                "cfu": 6
            },
            {
                "name": "PRINCIPI DI INGEGNERIA ELETTRICA ",
                "cfu": 6
            },
            {
                "name": "MECCANICA DEI MATERIALI E PROGETTAZIONE MECCANICA I",
                "cfu": 12
            },
            {
                "name": "SISTEMI ENERGETICI I E MACCHINE A FLUIDO I",
                "cfu": 12
            },
            {
                "name": "TIROCINI",
                "cfu": 6
            },
            {
                "name": "FONDAMENTI DELLA MISURAZIONE E METROLOGIA",
                "cfu": 9
            },
            {
                "name": "IMPIANTI MECCANICI I",
                "cfu": 6
            },
            {
                "name": "PROVA FINALE",
                "cfu": 3
            },
            {
                "name": "ESAME A SCELTA",
                "cfu": 6
            },
            {
                "name": "ESAME A SCELTA",
                "cfu": 6
            }
        ]
    },
    "2013": {
        "[LT31-20] - MECCANICA": [
            {
                "name": "ECONOMIA ED ORGANIZZAZIONE AZIENDALE ",
                "cfu": 6
            },
            {
                "name": "FONDAMENTI DI INFORMATICA",
                "cfu": 6
            },
            {
                "name": "GEOMETRIA E ALGEBRA",
                "cfu": 6
            },
            {
                "name": "METODI DI RAPPRESENTAZIONE TECNICA",
                "cfu": 6
            },
            {
                "name": "CHIMICA E COMPLEMENTI DI CHIMICA",
                "cfu": 12
            },
            {
                "name": "FISICA GENERALE",
                "cfu": 12
            },
            {
                "name": "INGLESE I",
                "cfu": 3
            },
            {
                "name": "ANALISI MATEMATICA",
                "cfu": 12
            },
            {
                "name": "FISICA TECNICA ",
                "cfu": 6
            },
            {
                "name": "FLUIDODINAMICA",
                "cfu": 6
            },
            {
                "name": "MECCANICA APPLICATA ALLE MACCHINE I",
                "cfu": 12
            },
            {
                "name": "MECCANICA RAZIONALE",
                "cfu": 6
            },
            {
                "name": "PRINCIPI DI INGEGNERIA ELETTRICA ",
                "cfu": 6
            },
            {
                "name": "SCIENZA DELLE COSTRUZIONI",
                "cfu": 12
            },
            {
                "name": "TECNOLOGIA GENERALE DEI MATERIALI",
                "cfu": 6
            },
            {
                "name": "TECNOLOGIA MECCANICA I",
                "cfu": 6
            },
            {
                "name": "IMPIANTI MECCANICI I",
                "cfu": 6
            },
            {
                "name": "MECCANICA DEI MATERIALI E PROGETTAZIONE MECCANICA I",
                "cfu": 12
            },
            {
                "name": "MISURE MECCANICHE E TERMICHE",
                "cfu": 6
            },
            {
                "name": "PROVA FINALE",
                "cfu": 3
            },
            {
                "name": "SISTEMI ENERGETICI I E MACCHINE A FLUIDO I",
                "cfu": 12
            },
            {
                "name": "TIROCINI",
                "cfu": 6
            },
            {
                "name": "ESAME A SCELTA",
                "cfu": 6
            },
            {
                "name": "ESAME A SCELTA",
                "cfu": 6
            }
        ],
        "[LT31-21_TA] - INDUSTRIALE": [
            {
                "name": "ANALISI MATEMATICA",
                "cfu": 12
            },
            {
                "name": "ECONOMIA ED ORGANIZZAZIONE AZIENDALE ",
                "cfu": 6
            },
            {
                "name": "GEOMETRIA E ALGEBRA",
                "cfu": 6
            },
            {
                "name": "CHIMICA",
                "cfu": 6
            },
            {
                "name": "FONDAMENTI DI INFORMATICA",
                "cfu": 6
            },
            {
                "name": "INGLESE I",
                "cfu": 3
            },
            {
                "name": "MECCANICA RAZIONALE",
                "cfu": 6
            },
            {
                "name": "FISICA GENERALE",
                "cfu": 12
            },
            {
                "name": "COMPLEMENTI DI MATEMATICA",
                "cfu": 6
            },
            {
                "name": "FISICA TECNICA ",
                "cfu": 6
            },
            {
                "name": "FLUIDODINAMICA",
                "cfu": 6
            },
            {
                "name": "MATERIALI E TECNOLOGIA MECCANICA",
                "cfu": 12
            },
            {
                "name": "MECCANICA APPLICATA ALLE MACCHINE I",
                "cfu": 12
            },
            {
                "name": "METODI DI RAPPRESENTAZIONE TECNICA",
                "cfu": 6
            },
            {
                "name": "PRINCIPI DI INGEGNERIA ELETTRICA ",
                "cfu": 6
            },
            {
                "name": "SCIENZA DELLE COSTRUZIONI",
                "cfu": 6
            },
            {
                "name": "FONDAMENTI DELLA MISURAZIONE E METROLOGIA",
                "cfu": 12
            },
            {
                "name": "IMPIANTI MECCANICI I",
                "cfu": 6
            },
            {
                "name": "MECCANICA DEI MATERIALI E PROGETTAZIONE MECCANICA I",
                "cfu": 12
            },
            {
                "name": "PROVA FINALE",
                "cfu": 3
            },
            {
                "name": "SISTEMI ENERGETICI I E MACCHINE A FLUIDO I",
                "cfu": 12
            },
            {
                "name": "TIROCINI",
                "cfu": 6
            },
            {
                "name": "ESAME A SCELTA",
                "cfu": 6
            },
            {
                "name": "ESAME A SCELTA",
                "cfu": 6
            }
        ]
    },
    "2014": {
        "[LT31-20] - MECCANICA": [
            {
                "name": "ECONOMIA ED ORGANIZZAZIONE AZIENDALE ",
                "cfu": 6
            },
            {
                "name": "FONDAMENTI DI INFORMATICA",
                "cfu": 6
            },
            {
                "name": "GEOMETRIA E ALGEBRA",
                "cfu": 6
            },
            {
                "name": "METODI DI RAPPRESENTAZIONE TECNICA",
                "cfu": 6
            },
            {
                "name": "CHIMICA E COMPLEMENTI DI CHIMICA",
                "cfu": 12
            },
            {
                "name": "FISICA GENERALE",
                "cfu": 12
            },
            {
                "name": "LINGUA INGLESE B1",
                "cfu": 3
            },
            {
                "name": "ANALISI MATEMATICA",
                "cfu": 12
            },
            {
                "name": "FISICA TECNICA ",
                "cfu": 6
            },
            {
                "name": "FLUIDODINAMICA",
                "cfu": 6
            },
            {
                "name": "MECCANICA RAZIONALE",
                "cfu": 6
            },
            {
                "name": "PRINCIPI DI INGEGNERIA ELETTRICA ",
                "cfu": 6
            },
            {
                "name": "TECNOLOGIA GENERALE DEI MATERIALI",
                "cfu": 6
            },
            {
                "name": "MECCANICA APPLICATA ALLE MACCHINE I",
                "cfu": 12
            },
            {
                "name": "SCIENZA DELLE COSTRUZIONI",
                "cfu": 12
            },
            {
                "name": "TECNOLOGIA MECCANICA I",
                "cfu": 6
            },
            {
                "name": "IMPIANTI MECCANICI I",
                "cfu": 6
            },
            {
                "name": "MECCANICA DEI MATERIALI E PROGETTAZIONE MECCANICA I",
                "cfu": 12
            },
            {
                "name": "MISURE MECCANICHE E TERMICHE",
                "cfu": 6
            },
            {
                "name": "PROVA FINALE",
                "cfu": 3
            },
            {
                "name": "SISTEMI ENERGETICI I E MACCHINE A FLUIDO I",
                "cfu": 12
            },
            {
                "name": "TIROCINI",
                "cfu": 6
            },
            {
                "name": "ESAME A SCELTA",
                "cfu": 6
            },
            {
                "name": "ESAME A SCELTA",
                "cfu": 6
            }
        ],
        "[LT31-21_TA] - INDUSTRIALE": [
            {
                "name": "ANALISI MATEMATICA",
                "cfu": 12
            },
            {
                "name": "ECONOMIA ED ORGANIZZAZIONE AZIENDALE ",
                "cfu": 6
            },
            {
                "name": "GEOMETRIA E ALGEBRA",
                "cfu": 6
            },
            {
                "name": "CHIMICA",
                "cfu": 6
            },
            {
                "name": "FONDAMENTI DI INFORMATICA",
                "cfu": 6
            },
            {
                "name": "INGLESE I",
                "cfu": 3
            },
            {
                "name": "MECCANICA RAZIONALE",
                "cfu": 6
            },
            {
                "name": "FISICA GENERALE",
                "cfu": 12
            },
            {
                "name": "COMPLEMENTI DI MATEMATICA",
                "cfu": 6
            },
            {
                "name": "FLUIDODINAMICA",
                "cfu": 6
            },
            {
                "name": "PRINCIPI DI INGEGNERIA ELETTRICA ",
                "cfu": 6
            },
            {
                "name": "FISICA TECNICA ",
                "cfu": 6
            },
            {
                "name": "MECCANICA APPLICATA ALLE MACCHINE I",
                "cfu": 12
            },
            {
                "name": "METODI DI RAPPRESENTAZIONE TECNICA",
                "cfu": 6
            },
            {
                "name": "SCIENZA DELLE COSTRUZIONI",
                "cfu": 6
            },
            {
                "name": "MATERIALI E TECNOLOGIA MECCANICA",
                "cfu": 12
            },
            {
                "name": "FONDAMENTI DELLA MISURAZIONE E METROLOGIA",
                "cfu": 12
            },
            {
                "name": "IMPIANTI MECCANICI I",
                "cfu": 6
            },
            {
                "name": "MECCANICA DEI MATERIALI E PROGETTAZIONE MECCANICA I",
                "cfu": 12
            },
            {
                "name": "PROVA FINALE",
                "cfu": 3
            },
            {
                "name": "SISTEMI ENERGETICI I E MACCHINE A FLUIDO I",
                "cfu": 12
            },
            {
                "name": "TIROCINI",
                "cfu": 6
            },
            {
                "name": "ESAME A SCELTA",
                "cfu": 6
            },
            {
                "name": "ESAME A SCELTA",
                "cfu": 6
            }
        ]
    },
    "2015": {
        "[LT31-22] - MECCANICA": [
            {
                "name": "ANALISI MATEMATICA I",
                "cfu": 6
            },
            {
                "name": "ECONOMIA ED ORGANIZZAZIONE AZIENDALE ",
                "cfu": 6
            },
            {
                "name": "FONDAMENTI DI INFORMATICA",
                "cfu": 6
            },
            {
                "name": "GEOMETRIA E ALGEBRA",
                "cfu": 6
            },
            {
                "name": "METODI DI RAPPRESENTAZIONE TECNICA",
                "cfu": 6
            },
            {
                "name": "ANALISI MATEMATICA II",
                "cfu": 6
            },
            {
                "name": "CHIMICA E COMPLEMENTI DI CHIMICA",
                "cfu": 12
            },
            {
                "name": "FISICA GENERALE",
                "cfu": 12
            },
            {
                "name": "LINGUA INGLESE B1",
                "cfu": 3
            },
            {
                "name": "FISICA TECNICA ",
                "cfu": 6
            },
            {
                "name": "FLUIDODINAMICA",
                "cfu": 6
            },
            {
                "name": "MECCANICA APPLICATA ALLE MACCHINE I",
                "cfu": 12
            },
            {
                "name": "MECCANICA RAZIONALE",
                "cfu": 6
            },
            {
                "name": "PRINCIPI DI INGEGNERIA ELETTRICA ",
                "cfu": 6
            },
            {
                "name": "SCIENZA DELLE COSTRUZIONI",
                "cfu": 12
            },
            {
                "name": "IMPIANTI MECCANICI I",
                "cfu": 6
            },
            {
                "name": "MECCANICA DEI MATERIALI E PROGETTAZIONE MECCANICA I",
                "cfu": 12
            },
            {
                "name": "MISURE MECCANICHE E TERMICHE",
                "cfu": 6
            },
            {
                "name": "PROVA FINALE",
                "cfu": 3
            },
            {
                "name": "SISTEMI ENERGETICI I E MACCHINE A FLUIDO I",
                "cfu": 12
            },
            {
                "name": "TIROCINI",
                "cfu": 6
            },
            {
                "name": "TECNOLOGIA MECCANICA E DEI MATERIALI",
                "cfu": 12
            },
            {
                "name": "ESAME A SCELTA",
                "cfu": 6
            },
            {
                "name": "ESAME A SCELTA",
                "cfu": 6
            }
        ]
    },
    "2016": {
        "[LT31-22] - MECCANICA": [
            {
                "name": "ANALISI MATEMATICA",
                "cfu": 12
            },
            {
                "name": "FISICA 1",
                "cfu": 6
            },
            {
                "name": "GEOMETRIA E ALGEBRA",
                "cfu": 6
            },
            {
                "name": "LINGUA INGLESE B1",
                "cfu": 3
            },
            {
                "name": "METODI DI RAPPRESENTAZIONE TECNICA",
                "cfu": 6
            },
            {
                "name": "CHIMICA E COMPLEMENTI DI CHIMICA",
                "cfu": 12
            },
            {
                "name": "ECONOMIA ED ORGANIZZAZIONE AZIENDALE ",
                "cfu": 6
            },
            {
                "name": "FISICA 2",
                "cfu": 6
            },
            {
                "name": "FONDAMENTI DI INFORMATICA",
                "cfu": 6
            },
            {
                "name": "FISICA TECNICA ",
                "cfu": 6
            },
            {
                "name": "FLUIDODINAMICA",
                "cfu": 6
            },
            {
                "name": "MECCANICA RAZIONALE",
                "cfu": 6
            },
            {
                "name": "PRINCIPI DI INGEGNERIA ELETTRICA ",
                "cfu": 6
            },
            {
                "name": "MECCANICA APPLICATA ALLE MACCHINE I",
                "cfu": 12
            },
            {
                "name": "SCIENZA DELLE COSTRUZIONI",
                "cfu": 12
            },
            {
                "name": "TECNOLOGIA MECCANICA E DEI MATERIALI",
                "cfu": 12
            },
            {
                "name": "IMPIANTI MECCANICI I",
                "cfu": 6
            },
            {
                "name": "MECCANICA DEI MATERIALI E PROGETTAZIONE MECCANICA I",
                "cfu": 12
            },
            {
                "name": "MISURE MECCANICHE E TERMICHE",
                "cfu": 6
            },
            {
                "name": "PROVA FINALE",
                "cfu": 3
            },
            {
                "name": "SISTEMI ENERGETICI I E MACCHINE A FLUIDO I",
                "cfu": 12
            },
            {
                "name": "TIROCINI",
                "cfu": 6
            },
            {
                "name": "TIROCINIO AZIENDALE",
                "cfu": 6
            },
            {
                "name": "ESAME A SCELTA",
                "cfu": 6
            }
        ]
    },
    "2017": {}
}